pathotype	stxA1	stxB1	stxA2	stxB2	aaiC	aatA	aap	aggR	bfpA	eae	ipa	ltcA	sta1	stb
STEC	1	1	0	0	0	0	0	0	0	0	0	0	0	0
STEC	0	0	1	1	0	0	0	0	0	0	0	0	0	0
STEC	1	1	1	1	0	0	0	0	0	0	0	0	0	0
STEC-tEPEC	1	1	0	0	0	0	0	0	1	1	0	0	0	0
STEC-tEPEC	0	0	1	1	0	0	0	0	1	1	0	0	0	0
STEC-tEPEC	1	1	1	1	0	0	0	0	1	1	0	0	0	0
STEC-aEPEC	1	1	0	0	0	0	0	0	0	1	0	0	0	0
STEC-aEPEC	0	0	1	1	0	0	0	0	0	1	0	0	0	0
STEC-aEPEC	1	1	1	1	0	0	0	0	0	1	0	0	0	0
tEPEC	0	0	0	0	0	0	0	0	1	1	0	0	0	0
aEPEC	0	0	0	0	0	0	0	0	0	1	0	0	0	0
STEC-ETEC	1	1	0	0	0	0	0	0	0	0	0	1	0	0
STEC-ETEC	1	1	0	0	0	0	0	0	0	0	0	0	1	0
STEC-ETEC	1	1	0	0	0	0	0	0	0	0	0	0	0	1
STEC-ETEC	1	1	0	0	0	0	0	0	0	0	0	1	1	0
STEC-ETEC	1	1	0	0	0	0	0	0	0	0	0	1	0	1
STEC-ETEC	1	1	0	0	0	0	0	0	0	0	0	0	1	1
STEC-ETEC	1	1	0	0	0	0	0	0	0	0	0	1	1	1
STEC-ETEC	0	0	1	1	0	0	0	0	0	0	0	1	0	0
STEC-ETEC	0	0	1	1	0	0	0	0	0	0	0	0	1	0
STEC-ETEC	0	0	1	1	0	0	0	0	0	0	0	0	0	1
STEC-ETEC	0	0	1	1	0	0	0	0	0	0	0	1	1	0
STEC-ETEC	0	0	1	1	0	0	0	0	0	0	0	1	0	1
STEC-ETEC	0	0	1	1	0	0	0	0	0	0	0	0	1	1
STEC-ETEC	0	0	1	1	0	0	0	0	0	0	0	1	1	1
STEC-ETEC	1	1	1	1	0	0	0	0	0	0	0	1	0	0
STEC-ETEC	1	1	1	1	0	0	0	0	0	0	0	0	1	0
STEC-ETEC	1	1	1	1	0	0	0	0	0	0	0	0	0	1
STEC-ETEC	1	1	1	1	0	0	0	0	0	0	0	1	1	0
STEC-ETEC	1	1	1	1	0	0	0	0	0	0	0	1	0	1
STEC-ETEC	1	1	1	1	0	0	0	0	0	0	0	0	1	1
STEC-ETEC	1	1	1	1	0	0	0	0	0	0	0	1	1	1
STEC-EAEC	1	1	0	0	0	0	0	1	0	0	0	0	0	0
STEC-EAEC	1	1	0	0	0	0	1	1	0	0	0	0	0	0
STEC-EAEC	1	1	0	0	0	1	0	1	0	0	0	0	0	0
STEC-EAEC	1	1	0	0	0	1	1	1	0	0	0	0	0	0
STEC-EAEC	0	0	1	1	0	0	0	1	0	0	0	0	0	0
STEC-EAEC	0	0	1	1	0	0	1	1	0	0	0	0	0	0
STEC-EAEC	0	0	1	1	0	1	0	1	0	0	0	0	0	0
STEC-EAEC	0	0	1	1	0	1	1	1	0	0	0	0	0	0
STEC-EAEC	1	1	1	1	0	0	0	1	0	0	0	0	0	0
STEC-EAEC	1	1	1	1	0	0	1	1	0	0	0	0	0	0
STEC-EAEC	1	1	1	1	0	1	0	1	0	0	0	0	0	0
STEC-EAEC	1	1	1	1	0	1	1	1	0	0	0	0	0	0
EAEC	0	0	0	0	0	0	0	1	0	0	0	0	0	0
EAEC	0	0	0	0	0	0	1	0	0	0	0	0	0	0
EAEC	0	0	0	0	0	0	1	1	0	0	0	0	0	0
EAEC	0	0	0	0	0	1	0	0	0	0	0	0	0	0
EAEC	0	0	0	0	0	1	0	1	0	0	0	0	0	0
EAEC	0	0	0	0	0	1	1	0	0	0	0	0	0	0
EAEC	0	0	0	0	0	1	1	1	0	0	0	0	0	0
aaiC	0	0	0	0	1	0	0	0	0	0	0	0	0	0
STEC-aaiC	1	1	0	0	1	0	0	0	0	0	0	0	0	0
STEC-aaiC	0	0	1	1	1	0	0	0	0	0	0	0	0	0
STEC-aaiC	1	1	1	1	1	0	0	0	0	0	0	0	0	0
STEC-EAEC	1	1	0	0	1	0	0	1	0	0	0	0	0	0
STEC-EAEC	1	1	0	0	1	0	1	0	0	0	0	0	0	0
STEC-EAEC	1	1	0	0	1	0	1	1	0	0	0	0	0	0
STEC-EAEC	1	1	0	0	1	1	0	0	0	0	0	0	0	0
STEC-EAEC	1	1	0	0	1	1	0	1	0	0	0	0	0	0
STEC-EAEC	1	1	0	0	1	1	1	0	0	0	0	0	0	0
STEC-EAEC	1	1	0	0	1	1	1	1	0	0	0	0	0	0
STEC-EAEC	0	0	1	1	1	0	0	1	0	0	0	0	0	0
STEC-EAEC	0	0	1	1	1	0	1	0	0	0	0	0	0	0
STEC-EAEC	0	0	1	1	1	0	1	1	0	0	0	0	0	0
STEC-EAEC	0	0	1	1	1	1	0	0	0	0	0	0	0	0
STEC-EAEC	0	0	1	1	1	1	0	1	0	0	0	0	0	0
STEC-EAEC	0	0	1	1	1	1	1	0	0	0	0	0	0	0
STEC-EAEC	0	0	1	1	1	1	1	1	0	0	0	0	0	0
STEC-EAEC	1	1	1	1	1	0	0	1	0	0	0	0	0	0
STEC-EAEC	1	1	1	1	1	0	1	0	0	0	0	0	0	0
STEC-EAEC	1	1	1	1	1	0	1	1	0	0	0	0	0	0
STEC-EAEC	1	1	1	1	1	1	0	0	0	0	0	0	0	0
STEC-EAEC	1	1	1	1	1	1	0	1	0	0	0	0	0	0
STEC-EAEC	1	1	1	1	1	1	1	0	0	0	0	0	0	0
STEC-EAEC	1	1	1	1	1	1	1	1	0	0	0	0	0	0
EAEC-aaiC	0	0	0	0	1	0	0	1	0	0	0	0	0	0
EAEC-aaiC	0	0	0	0	1	0	1	0	0	0	0	0	0	0
EAEC-aaiC	0	0	0	0	1	0	1	1	0	0	0	0	0	0
EAEC-aaiC	0	0	0	0	1	1	0	0	0	0	0	0	0	0
EAEC-aaiC	0	0	0	0	1	1	0	1	0	0	0	0	0	0
EAEC-aaiC	0	0	0	0	1	1	1	0	0	0	0	0	0	0
EAEC-aaiC	0	0	0	0	1	1	1	1	0	0	0	0	0	0
STEC-EIEC	0	0	1	1	0	0	0	0	0	0	1	0	0	0
STEC-EIEC	1	1	1	1	0	0	0	0	0	0	1	0	0	0
EIEC	0	0	0	0	0	0	0	0	0	0	1	0	0	0
Shigella ST1	1	1	0	0	0	0	0	0	0	0	1	0	0	0
