name	VFG	Accession	comment	vf_description	vf_function	vf_category	vf_host	vf_genus	vf_species	vf_gene	VFCID	VFID	database_type
VFG038261(gb|WP_016352107)	VFG038261	WP_016352107	(exeA) general secretion pathway protein A [Exe T2SS (VF0478) - Effector delivery system (VFC0086)] [Aeromonas hydrophila ML09-119]	(exeA) general secretion pathway protein A	Exe T2SS	Effector delivery system	Aeromonas hydrophila ML09-119	Aeromonas	Aeromonas hydrophila	exeA	VFC0086	VF0478	vfdb_aeromonas_setA
VFG038265(gb|WP_016352108)	VFG038265	WP_016352108	(exeB) general secretion pathway protein B [Exe T2SS (VF0478) - Effector delivery system (VFC0086)] [Aeromonas hydrophila ML09-119]	(exeB) general secretion pathway protein B	Exe T2SS	Effector delivery system	Aeromonas hydrophila ML09-119	Aeromonas	Aeromonas hydrophila	exeB	VFC0086	VF0478	vfdb_aeromonas_setA
VFG038269(gb|WP_075384415)	VFG038269	WP_075384415	(exeC) general secretion pathway protein C [Exe T2SS (VF0478) - Effector delivery system (VFC0086)] [Aeromonas hydrophila ML09-119]	(exeC) general secretion pathway protein C	Exe T2SS	Effector delivery system	Aeromonas hydrophila ML09-119	Aeromonas	Aeromonas hydrophila	exeC	VFC0086	VF0478	vfdb_aeromonas_setA
VFG038273(gb|WP_016349335)	VFG038273	WP_016349335	(exeD) general secretion pathway protein D [Exe T2SS (VF0478) - Effector delivery system (VFC0086)] [Aeromonas hydrophila ML09-119]	(exeD) general secretion pathway protein D	Exe T2SS	Effector delivery system	Aeromonas hydrophila ML09-119	Aeromonas	Aeromonas hydrophila	exeD	VFC0086	VF0478	vfdb_aeromonas_setA
VFG038277(gb|WP_016349336)	VFG038277	WP_016349336	(exeE) general secretory pathway protein E [Exe T2SS (VF0478) - Effector delivery system (VFC0086)] [Aeromonas hydrophila ML09-119]	(exeE) general secretory pathway protein E	Exe T2SS	Effector delivery system	Aeromonas hydrophila ML09-119	Aeromonas	Aeromonas hydrophila	exeE	VFC0086	VF0478	vfdb_aeromonas_setA
VFG038281(gb|WP_016349337)	VFG038281	WP_016349337	(exeF) general secretion pathway protein F [Exe T2SS (VF0478) - Effector delivery system (VFC0086)] [Aeromonas hydrophila ML09-119]	(exeF) general secretion pathway protein F	Exe T2SS	Effector delivery system	Aeromonas hydrophila ML09-119	Aeromonas	Aeromonas hydrophila	exeF	VFC0086	VF0478	vfdb_aeromonas_setA
VFG038285(gb|WP_005308483)	VFG038285	WP_005308483	(exeG) general secretion pathway protein G [Exe T2SS (VF0478) - Effector delivery system (VFC0086)] [Aeromonas hydrophila ML09-119]	(exeG) general secretion pathway protein G	Exe T2SS	Effector delivery system	Aeromonas hydrophila ML09-119	Aeromonas	Aeromonas hydrophila	exeG	VFC0086	VF0478	vfdb_aeromonas_setA
VFG038289(gb|WP_016349339)	VFG038289	WP_016349339	(exeH) general secretion pathway protein H [Exe T2SS (VF0478) - Effector delivery system (VFC0086)] [Aeromonas hydrophila ML09-119]	(exeH) general secretion pathway protein H	Exe T2SS	Effector delivery system	Aeromonas hydrophila ML09-119	Aeromonas	Aeromonas hydrophila	exeH	VFC0086	VF0478	vfdb_aeromonas_setA
VFG038293(gb|WP_016349340)	VFG038293	WP_016349340	(exeI) general secretion pathway protein I [Exe T2SS (VF0478) - Effector delivery system (VFC0086)] [Aeromonas hydrophila ML09-119]	(exeI) general secretion pathway protein I	Exe T2SS	Effector delivery system	Aeromonas hydrophila ML09-119	Aeromonas	Aeromonas hydrophila	exeI	VFC0086	VF0478	vfdb_aeromonas_setA
VFG038297(gb|WP_016349341)	VFG038297	WP_016349341	(exeJ) general secretion pathway protein J [Exe T2SS (VF0478) - Effector delivery system (VFC0086)] [Aeromonas hydrophila ML09-119]	(exeJ) general secretion pathway protein J	Exe T2SS	Effector delivery system	Aeromonas hydrophila ML09-119	Aeromonas	Aeromonas hydrophila	exeJ	VFC0086	VF0478	vfdb_aeromonas_setA
VFG038301(gb|WP_016349342)	VFG038301	WP_016349342	(exeK) general secretion pathway protein K [Exe T2SS (VF0478) - Effector delivery system (VFC0086)] [Aeromonas hydrophila ML09-119]	(exeK) general secretion pathway protein K	Exe T2SS	Effector delivery system	Aeromonas hydrophila ML09-119	Aeromonas	Aeromonas hydrophila	exeK	VFC0086	VF0478	vfdb_aeromonas_setA
VFG038305(gb|WP_016349343)	VFG038305	WP_016349343	(exeL) general secretion pathway protein L [Exe T2SS (VF0478) - Effector delivery system (VFC0086)] [Aeromonas hydrophila ML09-119]	(exeL) general secretion pathway protein L	Exe T2SS	Effector delivery system	Aeromonas hydrophila ML09-119	Aeromonas	Aeromonas hydrophila	exeL	VFC0086	VF0478	vfdb_aeromonas_setA
VFG038309(gb|WP_016349344)	VFG038309	WP_016349344	(exeM) general secretion pathway protein M [Exe T2SS (VF0478) - Effector delivery system (VFC0086)] [Aeromonas hydrophila ML09-119]	(exeM) general secretion pathway protein M	Exe T2SS	Effector delivery system	Aeromonas hydrophila ML09-119	Aeromonas	Aeromonas hydrophila	exeM	VFC0086	VF0478	vfdb_aeromonas_setA
VFG038313(gb|WP_043118380)	VFG038313	WP_043118380	(exeN) general secretion pathway protein N [Exe T2SS (VF0478) - Effector delivery system (VFC0086)] [Aeromonas hydrophila ML09-119]	(exeN) general secretion pathway protein N	Exe T2SS	Effector delivery system	Aeromonas hydrophila ML09-119	Aeromonas	Aeromonas hydrophila	exeN	VFC0086	VF0478	vfdb_aeromonas_setA
VFG038317(gb|WP_016352170)	VFG038317	WP_016352170	(tapD/pilD) prepilin peptidase [Tap type IV pili (VF0475) - Adherence (VFC0001)] [Aeromonas hydrophila ML09-119]	(tapD/pilD) prepilin peptidase	Tap type IV pili	Adherence	Aeromonas hydrophila ML09-119	Aeromonas	Aeromonas hydrophila	tapD	VFC0001	VF0475	vfdb_aeromonas_setA
VFG038320(gb|WP_005320812)	VFG038320	WP_005320812	(ascL) Type III secretion system C ring protein AscL [T3SS (VF0479) - Effector delivery system (VFC0086)] [Aeromonas salmonicida subsp. salmonicida A449]	(ascL) Type III secretion system C ring protein AscL	T3SS	Effector delivery system	Aeromonas salmonicida subsp. salmonicida A449	Aeromonas	Aeromonas salmonicida	ascL	VFC0086	VF0479	vfdb_aeromonas_setA
VFG038321(gb|WP_005320811)	VFG038321	WP_005320811	(ascK) Type III secretion system C ring protein AscK [T3SS (VF0479) - Effector delivery system (VFC0086)] [Aeromonas salmonicida subsp. salmonicida A449]	(ascK) Type III secretion system C ring protein AscK	T3SS	Effector delivery system	Aeromonas salmonicida subsp. salmonicida A449	Aeromonas	Aeromonas salmonicida	ascK	VFC0086	VF0479	vfdb_aeromonas_setA
VFG038322(gb|WP_180975055)	VFG038322	WP_180975055	(ascJ) type III secretion system OM ring protein AscJ [T3SS (VF0479) - Effector delivery system (VFC0086)] [Aeromonas salmonicida subsp. salmonicida A449]	(ascJ) type III secretion system OM ring protein AscJ	T3SS	Effector delivery system	Aeromonas salmonicida subsp. salmonicida A449	Aeromonas	Aeromonas salmonicida	ascJ	VFC0086	VF0479	vfdb_aeromonas_setA
VFG038323(gb|WP_005320806)	VFG038323	WP_005320806	(ascI) Type III secretion system inner rod protein AscI [T3SS (VF0479) - Effector delivery system (VFC0086)] [Aeromonas salmonicida subsp. salmonicida A449]	(ascI) Type III secretion system inner rod protein AscI	T3SS	Effector delivery system	Aeromonas salmonicida subsp. salmonicida A449	Aeromonas	Aeromonas salmonicida	ascI	VFC0086	VF0479	vfdb_aeromonas_setA
VFG038324(gb|WP_005320804)	VFG038324	WP_005320804	(ascH) Type III secretion system protein AscH, regulator needle assembling [T3SS (VF0479) - Effector delivery system (VFC0086)] [Aeromonas salmonicida subsp. salmonicida A449]	(ascH) Type III secretion system protein AscH, regulator needle assembling	T3SS	Effector delivery system	Aeromonas salmonicida subsp. salmonicida A449	Aeromonas	Aeromonas salmonicida	ascH	VFC0086	VF0479	vfdb_aeromonas_setA
VFG038325(gb|WP_005320802)	VFG038325	WP_005320802	(ascG) chaperone protein [T3SS (VF0479) - Effector delivery system (VFC0086)] [Aeromonas salmonicida subsp. salmonicida A449]	(ascG) chaperone protein	T3SS	Effector delivery system	Aeromonas salmonicida subsp. salmonicida A449	Aeromonas	Aeromonas salmonicida	ascG	VFC0086	VF0479	vfdb_aeromonas_setA
VFG038326(gb|WP_005320800)	VFG038326	WP_005320800	(ascF) Type III secretion system needle complex subunit AscF [T3SS (VF0479) - Effector delivery system (VFC0086)] [Aeromonas salmonicida subsp. salmonicida A449]	(ascF) Type III secretion system needle complex subunit AscF	T3SS	Effector delivery system	Aeromonas salmonicida subsp. salmonicida A449	Aeromonas	Aeromonas salmonicida	ascF	VFC0086	VF0479	vfdb_aeromonas_setA
VFG038327(gb|WP_005320797)	VFG038327	WP_005320797	(ascE) chaperone protein [T3SS (VF0479) - Effector delivery system (VFC0086)] [Aeromonas salmonicida subsp. salmonicida A449]	(ascE) chaperone protein	T3SS	Effector delivery system	Aeromonas salmonicida subsp. salmonicida A449	Aeromonas	Aeromonas salmonicida	ascE	VFC0086	VF0479	vfdb_aeromonas_setA
VFG038328(gb|WP_005320795)	VFG038328	WP_005320795	(ascD) Type III secretion system OM ring protein AscD [T3SS (VF0479) - Effector delivery system (VFC0086)] [Aeromonas salmonicida subsp. salmonicida A449]	(ascD) Type III secretion system OM ring protein AscD	T3SS	Effector delivery system	Aeromonas salmonicida subsp. salmonicida A449	Aeromonas	Aeromonas salmonicida	ascD	VFC0086	VF0479	vfdb_aeromonas_setA
VFG038329(gb|WP_011899438)	VFG038329	WP_011899438	(ascC) Type III secretion system OM ring protein AscC [T3SS (VF0479) - Effector delivery system (VFC0086)] [Aeromonas salmonicida subsp. salmonicida A449]	(ascC) Type III secretion system OM ring protein AscC	T3SS	Effector delivery system	Aeromonas salmonicida subsp. salmonicida A449	Aeromonas	Aeromonas salmonicida	ascC	VFC0086	VF0479	vfdb_aeromonas_setA
VFG038330(gb|WP_011899439)	VFG038330	WP_011899439	(ascB) chaperone protein [T3SS (VF0479) - Effector delivery system (VFC0086)] [Aeromonas salmonicida subsp. salmonicida A449]	(ascB) chaperone protein	T3SS	Effector delivery system	Aeromonas salmonicida subsp. salmonicida A449	Aeromonas	Aeromonas salmonicida	ascB	VFC0086	VF0479	vfdb_aeromonas_setA
VFG038331(gb|WP_005320790)	VFG038331	WP_005320790	(exsD) Type III secretion system protein ExsD [T3SS (VF0479) - Effector delivery system (VFC0086)] [Aeromonas salmonicida subsp. salmonicida A449]	(exsD) Type III secretion system protein ExsD	T3SS	Effector delivery system	Aeromonas salmonicida subsp. salmonicida A449	Aeromonas	Aeromonas salmonicida	exsD	VFC0086	VF0479	vfdb_aeromonas_setA
VFG038332(gb|WP_192914500)	VFG038332	WP_192914500	(exsA) Type III secretion system transcriptional regulator [T3SS (VF0479) - Effector delivery system (VFC0086)] [Aeromonas salmonicida subsp. salmonicida A449]	(exsA) Type III secretion system transcriptional regulator	T3SS	Effector delivery system	Aeromonas salmonicida subsp. salmonicida A449	Aeromonas	Aeromonas salmonicida	exsA	VFC0086	VF0479	vfdb_aeromonas_setA
VFG038333(gb|WP_011899440)	VFG038333	WP_011899440	(exsB) type III secretion system OM ring protein ExsB [T3SS (VF0479) - Effector delivery system (VFC0086)] [Aeromonas salmonicida subsp. salmonicida A449]	(exsB) type III secretion system OM ring protein ExsB	T3SS	Effector delivery system	Aeromonas salmonicida subsp. salmonicida A449	Aeromonas	Aeromonas salmonicida	exsB	VFC0086	VF0479	vfdb_aeromonas_setA
VFG038334(gb|WP_005320785)	VFG038334	WP_005320785	(exsE) Type III secretion system regulator [T3SS (VF0479) - Effector delivery system (VFC0086)] [Aeromonas salmonicida subsp. salmonicida A449]	(exsE) Type III secretion system regulator	T3SS	Effector delivery system	Aeromonas salmonicida subsp. salmonicida A449	Aeromonas	Aeromonas salmonicida	exsE	VFC0086	VF0479	vfdb_aeromonas_setA
VFG038335(gb|WP_005320783)	VFG038335	WP_005320783	(exsC) chaperone protein [T3SS (VF0479) - Effector delivery system (VFC0086)] [Aeromonas salmonicida subsp. salmonicida A449]	(exsC) chaperone protein	T3SS	Effector delivery system	Aeromonas salmonicida subsp. salmonicida A449	Aeromonas	Aeromonas salmonicida	exsC	VFC0086	VF0479	vfdb_aeromonas_setA
VFG038336(gb|WP_005320781)	VFG038336	WP_005320781	(aopD) Type III secretion system translocator AopD [T3SS (VF0479) - Effector delivery system (VFC0086)] [Aeromonas salmonicida subsp. salmonicida A449]	(aopD) Type III secretion system translocator AopD	T3SS	Effector delivery system	Aeromonas salmonicida subsp. salmonicida A449	Aeromonas	Aeromonas salmonicida	aopD	VFC0086	VF0479	vfdb_aeromonas_setA
VFG038337(gb|WP_005320780)	VFG038337	WP_005320780	(aopB) Type III secretion system translocator AopB [T3SS (VF0479) - Effector delivery system (VFC0086)] [Aeromonas salmonicida subsp. salmonicida A449]	(aopB) Type III secretion system translocator AopB	T3SS	Effector delivery system	Aeromonas salmonicida subsp. salmonicida A449	Aeromonas	Aeromonas salmonicida	aopB	VFC0086	VF0479	vfdb_aeromonas_setA
VFG038338(gb|WP_005320778)	VFG038338	WP_005320778	(acrH) chaperon protein for AopB/AopD [T3SS (VF0479) - Effector delivery system (VFC0086)] [Aeromonas salmonicida subsp. salmonicida A449]	(acrH) chaperon protein for AopB/AopD	T3SS	Effector delivery system	Aeromonas salmonicida subsp. salmonicida A449	Aeromonas	Aeromonas salmonicida	acrH	VFC0086	VF0479	vfdb_aeromonas_setA
VFG038339(gb|WP_005320777)	VFG038339	WP_005320777	(acrV) Type III secretion system tip translocon AcrV  [T3SS (VF0479) - Effector delivery system (VFC0086)] [Aeromonas salmonicida subsp. salmonicida A449]	(acrV) Type III secretion system tip translocon AcrV 	T3SS	Effector delivery system	Aeromonas salmonicida subsp. salmonicida A449	Aeromonas	Aeromonas salmonicida	acrV	VFC0086	VF0479	vfdb_aeromonas_setA
VFG038340(gb|WP_005320774)	VFG038340	WP_005320774	(acrG) Type III secretion system protein, LcrG-like [T3SS (VF0479) - Effector delivery system (VFC0086)] [Aeromonas salmonicida subsp. salmonicida A449]	(acrG) Type III secretion system protein, LcrG-like	T3SS	Effector delivery system	Aeromonas salmonicida subsp. salmonicida A449	Aeromonas	Aeromonas salmonicida	acrG	VFC0086	VF0479	vfdb_aeromonas_setA
VFG038341(gb|WP_005320772)	VFG038341	WP_005320772	(acrR) Type III secretion system regulator, LcrR-like [T3SS (VF0479) - Effector delivery system (VFC0086)] [Aeromonas salmonicida subsp. salmonicida A449]	(acrR) Type III secretion system regulator, LcrR-like	T3SS	Effector delivery system	Aeromonas salmonicida subsp. salmonicida A449	Aeromonas	Aeromonas salmonicida	acrR	VFC0086	VF0479	vfdb_aeromonas_setA
VFG038342(gb|WP_005320770)	VFG038342	WP_005320770	(ascV) Type III secretion system inner membrane export apparatus protein AscV [T3SS (VF0479) - Effector delivery system (VFC0086)] [Aeromonas salmonicida subsp. salmonicida A449]	(ascV) Type III secretion system inner membrane export apparatus protein AscV	T3SS	Effector delivery system	Aeromonas salmonicida subsp. salmonicida A449	Aeromonas	Aeromonas salmonicida	ascV	VFC0086	VF0479	vfdb_aeromonas_setA
VFG038343(gb|WP_005320768)	VFG038343	WP_005320768	(ascY) chaperone protein [T3SS (VF0479) - Effector delivery system (VFC0086)] [Aeromonas salmonicida subsp. salmonicida A449]	(ascY) chaperone protein	T3SS	Effector delivery system	Aeromonas salmonicida subsp. salmonicida A449	Aeromonas	Aeromonas salmonicida	ascY	VFC0086	VF0479	vfdb_aeromonas_setA
VFG038344(gb|WP_005320766)	VFG038344	WP_005320766	(ascX) Unknown function, chaperoned by AscY [T3SS (VF0479) - Effector delivery system (VFC0086)] [Aeromonas salmonicida subsp. salmonicida A449]	(ascX) Unknown function, chaperoned by AscY	T3SS	Effector delivery system	Aeromonas salmonicida subsp. salmonicida A449	Aeromonas	Aeromonas salmonicida	ascX	VFC0086	VF0479	vfdb_aeromonas_setA
VFG038345(gb|WP_005320764)	VFG038345	WP_005320764	(acr2) chaperone protein [T3SS (VF0479) - Effector delivery system (VFC0086)] [Aeromonas salmonicida subsp. salmonicida A449]	(acr2) chaperone protein	T3SS	Effector delivery system	Aeromonas salmonicida subsp. salmonicida A449	Aeromonas	Aeromonas salmonicida	acr2	VFC0086	VF0479	vfdb_aeromonas_setA
VFG038346(gb|WP_005320760)	VFG038346	WP_005320760	(acr1) Type III secretion system gatekeeper subunit  [T3SS (VF0479) - Effector delivery system (VFC0086)] [Aeromonas salmonicida subsp. salmonicida A449]	(acr1) Type III secretion system gatekeeper subunit 	T3SS	Effector delivery system	Aeromonas salmonicida subsp. salmonicida A449	Aeromonas	Aeromonas salmonicida	acr1	VFC0086	VF0479	vfdb_aeromonas_setA
VFG038347(gb|WP_005320757)	VFG038347	WP_005320757	(aopN) AopN, secretion control of translocators and immune suppressor [T3SS (VF0479) - Effector delivery system (VFC0086)] [Aeromonas salmonicida subsp. salmonicida A449]	(aopN) AopN, secretion control of translocators and immune suppressor	T3SS	Effector delivery system	Aeromonas salmonicida subsp. salmonicida A449	Aeromonas	Aeromonas salmonicida	aopN	VFC0086	VF0479	vfdb_aeromonas_setA
VFG038348(gb|WP_005320755)	VFG038348	WP_005320755	(ascN) Type III secretion system ATPase [T3SS (VF0479) - Effector delivery system (VFC0086)] [Aeromonas salmonicida subsp. salmonicida A449]	(ascN) Type III secretion system ATPase	T3SS	Effector delivery system	Aeromonas salmonicida subsp. salmonicida A449	Aeromonas	Aeromonas salmonicida	ascN	VFC0086	VF0479	vfdb_aeromonas_setA
VFG038349(gb|WP_005320751)	VFG038349	WP_005320751	(ascO) Type III secretion system protein AscO [T3SS (VF0479) - Effector delivery system (VFC0086)] [Aeromonas salmonicida subsp. salmonicida A449]	(ascO) Type III secretion system protein AscO	T3SS	Effector delivery system	Aeromonas salmonicida subsp. salmonicida A449	Aeromonas	Aeromonas salmonicida	ascO	VFC0086	VF0479	vfdb_aeromonas_setA
VFG038350(gb|WP_005320749)	VFG038350	WP_005320749	(ascP) Type III secretion system protein AscP, needle length control, ruler protein [T3SS (VF0479) - Effector delivery system (VFC0086)] [Aeromonas salmonicida subsp. salmonicida A449]	(ascP) Type III secretion system protein AscP, needle length control, ruler protein	T3SS	Effector delivery system	Aeromonas salmonicida subsp. salmonicida A449	Aeromonas	Aeromonas salmonicida	ascP	VFC0086	VF0479	vfdb_aeromonas_setA
VFG038351(gb|WP_005320747)	VFG038351	WP_005320747	(ascQ) type III secretion system protein AscQ [T3SS (VF0479) - Effector delivery system (VFC0086)] [Aeromonas salmonicida subsp. salmonicida A449]	(ascQ) type III secretion system protein AscQ	T3SS	Effector delivery system	Aeromonas salmonicida subsp. salmonicida A449	Aeromonas	Aeromonas salmonicida	ascQ	VFC0086	VF0479	vfdb_aeromonas_setA
VFG038352(gb|WP_005320745)	VFG038352	WP_005320745	(ascR) Type III secretion system inner membrane export apparatus protein AscR [T3SS (VF0479) - Effector delivery system (VFC0086)] [Aeromonas salmonicida subsp. salmonicida A449]	(ascR) Type III secretion system inner membrane export apparatus protein AscR	T3SS	Effector delivery system	Aeromonas salmonicida subsp. salmonicida A449	Aeromonas	Aeromonas salmonicida	ascR	VFC0086	VF0479	vfdb_aeromonas_setA
VFG038353(gb|WP_005320743)	VFG038353	WP_005320743	(ascS) type III secretion system inner membrane export apparatus protein AscS [T3SS (VF0479) - Effector delivery system (VFC0086)] [Aeromonas salmonicida subsp. salmonicida A449]	(ascS) type III secretion system inner membrane export apparatus protein AscS	T3SS	Effector delivery system	Aeromonas salmonicida subsp. salmonicida A449	Aeromonas	Aeromonas salmonicida	ascS	VFC0086	VF0479	vfdb_aeromonas_setA
VFG038354(gb|WP_005320741)	VFG038354	WP_005320741	(ascT) Type III secretion system inner membrane export apparatus protein AscT [T3SS (VF0479) - Effector delivery system (VFC0086)] [Aeromonas salmonicida subsp. salmonicida A449]	(ascT) Type III secretion system inner membrane export apparatus protein AscT	T3SS	Effector delivery system	Aeromonas salmonicida subsp. salmonicida A449	Aeromonas	Aeromonas salmonicida	ascT	VFC0086	VF0479	vfdb_aeromonas_setA
VFG038355(gb|WP_005320739)	VFG038355	WP_005320739	(ascU) Type III secretion system inner membrane export apparatus protein AscU [T3SS (VF0479) - Effector delivery system (VFC0086)] [Aeromonas salmonicida subsp. salmonicida A449]	(ascU) Type III secretion system inner membrane export apparatus protein AscU	T3SS	Effector delivery system	Aeromonas salmonicida subsp. salmonicida A449	Aeromonas	Aeromonas salmonicida	ascU	VFC0086	VF0479	vfdb_aeromonas_setA
VFG038356	VFG038356	NA	(aopX) hypothetical protein [T3SS (VF0479) - Effector delivery system (VFC0086)] [Aeromonas salmonicida subsp. salmonicida A449]	(aopX) hypothetical protein	T3SS	Effector delivery system	Aeromonas salmonicida subsp. salmonicida A449	Aeromonas	Aeromonas salmonicida	aopX	VFC0086	VF0479	vfdb_aeromonas_setA
VFG038357(gb|WP_005320736)	VFG038357	WP_005320736	(sycX) hypothetical protein [T3SS (VF0479) - Effector delivery system (VFC0086)] [Aeromonas salmonicida subsp. salmonicida A449]	(sycX) hypothetical protein	T3SS	Effector delivery system	Aeromonas salmonicida subsp. salmonicida A449	Aeromonas	Aeromonas salmonicida	sycX	VFC0086	VF0479	vfdb_aeromonas_setA
VFG038358(gb|WP_005321603)	VFG038358	WP_005321603	(sycH) AopH chaperone SycH [T3SS (VF0479) - Effector delivery system (VFC0086)] [Aeromonas salmonicida subsp. salmonicida A449]	(sycH) AopH chaperone SycH	T3SS	Effector delivery system	Aeromonas salmonicida subsp. salmonicida A449	Aeromonas	Aeromonas salmonicida	sycH	VFC0086	VF0479	vfdb_aeromonas_setA
VFG038359(gb|WP_005321607)	VFG038359	WP_005321607	(aopH) Type III secretion system effector AopH, putative tyrosine phosphatase [T3SS secreted effectors (VF0652) - Effector delivery system (VFC0086)] [Aeromonas salmonicida subsp. salmonicida A449]	(aopH) Type III secretion system effector AopH, putative tyrosine phosphatase	T3SS secreted effectors	Effector delivery system	Aeromonas salmonicida subsp. salmonicida A449	Aeromonas	Aeromonas salmonicida	aopH	VFC0086	VF0652	vfdb_aeromonas_setA
VFG038360(gb|WP_011899436)	VFG038360	WP_011899436	(ati2) Type III secretion system effector Ati2, Inositol polyphosphate 5-phosphatase [T3SS secreted effectors (VF0652) - Effector delivery system (VFC0086)] [Aeromonas salmonicida subsp. salmonicida A449]	(ati2) Type III secretion system effector Ati2, Inositol polyphosphate 5-phosphatase	T3SS secreted effectors	Effector delivery system	Aeromonas salmonicida subsp. salmonicida A449	Aeromonas	Aeromonas salmonicida	ati2	VFC0086	VF0652	vfdb_aeromonas_setA
VFG038361(gb|WP_005320818)	VFG038361	WP_005320818	(ati1) Ati2 chaperone [T3SS (VF0479) - Effector delivery system (VFC0086)] [Aeromonas salmonicida subsp. salmonicida A449]	(ati1) Ati2 chaperone	T3SS	Effector delivery system	Aeromonas salmonicida subsp. salmonicida A449	Aeromonas	Aeromonas salmonicida	ati1	VFC0086	VF0479	vfdb_aeromonas_setA
VFG038362(gb|WP_005321180)	VFG038362	WP_005321180	(sycO) AopO chaperone [T3SS (VF0479) - Effector delivery system (VFC0086)] [Aeromonas salmonicida subsp. salmonicida A449]	(sycO) AopO chaperone	T3SS	Effector delivery system	Aeromonas salmonicida subsp. salmonicida A449	Aeromonas	Aeromonas salmonicida	sycO	VFC0086	VF0479	vfdb_aeromonas_setA
VFG038363(gb|WP_005321178)	VFG038363	WP_005321178	(aopO) Type III secretion system effector AopO, putative serine/threonine kinase [T3SS secreted effectors (VF0652) - Effector delivery system (VFC0086)] [Aeromonas salmonicida subsp. salmonicida A449]	(aopO) Type III secretion system effector AopO, putative serine/threonine kinase	T3SS secreted effectors	Effector delivery system	Aeromonas salmonicida subsp. salmonicida A449	Aeromonas	Aeromonas salmonicida	aopO	VFC0086	VF0652	vfdb_aeromonas_setA
VFG038364(gb|WP_005320615)	VFG038364	WP_005320615	(aexT) Type III secretion system effector AexT, bifunctional toxin with GTPase and ADPribosylase activity [T3SS secreted effectors (VF0652) - Effector delivery system (VFC0086)] [Aeromonas salmonicida subsp. salmonicida A449]	(aexT) Type III secretion system effector AexT, bifunctional toxin with GTPase and ADPribosylase activity	T3SS secreted effectors	Effector delivery system	Aeromonas salmonicida subsp. salmonicida A449	Aeromonas	Aeromonas salmonicida	aexT	VFC0086	VF0652	vfdb_aeromonas_setA
VFG038365(gb|WP_011705044)	VFG038365	WP_011705044	(hcp1) HcpA-like protein [T6SS (VF0480) - Effector delivery system (VFC0086)] [Aeromonas hydrophila subsp. hydrophila ATCC 7966]	(hcp1) HcpA-like protein	T6SS	Effector delivery system	Aeromonas hydrophila subsp. hydrophila ATCC 7966	Aeromonas	Aeromonas hydrophila	hcp1	VFC0086	VF0480	vfdb_aeromonas_setA
VFG038367(gb|WP_011705045)	VFG038367	WP_011705045	(vgrG1) Type VI secretion system effector VgrG1, ADP-ribosyltransferase  [T6SS secreted effectors (VF0651) - Effector delivery system (VFC0086)] [Aeromonas hydrophila subsp. hydrophila ATCC 7966]	(vgrG1) Type VI secretion system effector VgrG1, ADP-ribosyltransferase 	T6SS secreted effectors	Effector delivery system	Aeromonas hydrophila subsp. hydrophila ATCC 7966	Aeromonas	Aeromonas hydrophila	vgrG1	VFC0086	VF0651	vfdb_aeromonas_setA
VFG038369(gb|WP_011705706)	VFG038369	WP_011705706	(hcp) hemolysin co-regulated protein [T6SS (VF0480) - Effector delivery system (VFC0086)] [Aeromonas hydrophila subsp. hydrophila ATCC 7966]	(hcp) hemolysin co-regulated protein	T6SS	Effector delivery system	Aeromonas hydrophila subsp. hydrophila ATCC 7966	Aeromonas	Aeromonas hydrophila	hcp	VFC0086	VF0480	vfdb_aeromonas_setA
VFG038371(gb|WP_011705707)	VFG038371	WP_011705707	(vgrG2) VgrG protein [T6SS (VF0480) - Effector delivery system (VFC0086)] [Aeromonas hydrophila subsp. hydrophila ATCC 7966]	(vgrG2) VgrG protein	T6SS	Effector delivery system	Aeromonas hydrophila subsp. hydrophila ATCC 7966	Aeromonas	Aeromonas hydrophila	vgrG2	VFC0086	VF0480	vfdb_aeromonas_setA
VFG038373(gb|WP_011705708)	VFG038373	WP_011705708	(atsA) Type VI secretion system protein [T6SS (VF0480) - Effector delivery system (VFC0086)] [Aeromonas hydrophila subsp. hydrophila ATCC 7966]	(atsA) Type VI secretion system protein	T6SS	Effector delivery system	Aeromonas hydrophila subsp. hydrophila ATCC 7966	Aeromonas	Aeromonas hydrophila	atsA	VFC0086	VF0480	vfdb_aeromonas_setA
VFG038374(gb|WP_011705709)	VFG038374	WP_011705709	(atsB) Type VI secretion system protein [T6SS (VF0480) - Effector delivery system (VFC0086)] [Aeromonas hydrophila subsp. hydrophila ATCC 7966]	(atsB) Type VI secretion system protein	T6SS	Effector delivery system	Aeromonas hydrophila subsp. hydrophila ATCC 7966	Aeromonas	Aeromonas hydrophila	atsB	VFC0086	VF0480	vfdb_aeromonas_setA
VFG038375(gb|WP_011705710)	VFG038375	WP_011705710	(atsC) Type VI secretion system protein [T6SS (VF0480) - Effector delivery system (VFC0086)] [Aeromonas hydrophila subsp. hydrophila ATCC 7966]	(atsC) Type VI secretion system protein	T6SS	Effector delivery system	Aeromonas hydrophila subsp. hydrophila ATCC 7966	Aeromonas	Aeromonas hydrophila	atsC	VFC0086	VF0480	vfdb_aeromonas_setA
VFG038376(gb|WP_164927604)	VFG038376	WP_164927604	(atsD) Type VI secretion system protein [T6SS (VF0480) - Effector delivery system (VFC0086)] [Aeromonas hydrophila subsp. hydrophila ATCC 7966]	(atsD) Type VI secretion system protein	T6SS	Effector delivery system	Aeromonas hydrophila subsp. hydrophila ATCC 7966	Aeromonas	Aeromonas hydrophila	atsD	VFC0086	VF0480	vfdb_aeromonas_setA
VFG038378(gb|WP_011705712)	VFG038378	WP_011705712	(vipA) Type VI secretion system contractile sheath small subunit TssB/VipA [T6SS (VF0480) - Effector delivery system (VFC0086)] [Aeromonas hydrophila subsp. hydrophila ATCC 7966]	(vipA) Type VI secretion system contractile sheath small subunit TssB/VipA	T6SS	Effector delivery system	Aeromonas hydrophila subsp. hydrophila ATCC 7966	Aeromonas	Aeromonas hydrophila	vipA	VFC0086	VF0480	vfdb_aeromonas_setA
VFG038380(gb|WP_043163044)	VFG038380	WP_043163044	(vipB) Type VI secretion system contractile sheath large subunit TssC/VipB [T6SS (VF0480) - Effector delivery system (VFC0086)] [Aeromonas hydrophila subsp. hydrophila ATCC 7966]	(vipB) Type VI secretion system contractile sheath large subunit TssC/VipB	T6SS	Effector delivery system	Aeromonas hydrophila subsp. hydrophila ATCC 7966	Aeromonas	Aeromonas hydrophila	vipB	VFC0086	VF0480	vfdb_aeromonas_setA
VFG038381(gb|WP_011705714)	VFG038381	WP_011705714	(atsG) Type VI secretion system protein [T6SS (VF0480) - Effector delivery system (VFC0086)] [Aeromonas hydrophila subsp. hydrophila ATCC 7966]	(atsG) Type VI secretion system protein	T6SS	Effector delivery system	Aeromonas hydrophila subsp. hydrophila ATCC 7966	Aeromonas	Aeromonas hydrophila	atsG	VFC0086	VF0480	vfdb_aeromonas_setA
VFG038383(gb|WP_011705715)	VFG038383	WP_011705715	(atsH) Type VI secretion system protein [T6SS (VF0480) - Effector delivery system (VFC0086)] [Aeromonas hydrophila subsp. hydrophila ATCC 7966]	(atsH) Type VI secretion system protein	T6SS	Effector delivery system	Aeromonas hydrophila subsp. hydrophila ATCC 7966	Aeromonas	Aeromonas hydrophila	atsH	VFC0086	VF0480	vfdb_aeromonas_setA
VFG038385(gb|WP_011705716)	VFG038385	WP_011705716	(atsI) Type VI secretion system protein [T6SS (VF0480) - Effector delivery system (VFC0086)] [Aeromonas hydrophila subsp. hydrophila ATCC 7966]	(atsI) Type VI secretion system protein	T6SS	Effector delivery system	Aeromonas hydrophila subsp. hydrophila ATCC 7966	Aeromonas	Aeromonas hydrophila	atsI	VFC0086	VF0480	vfdb_aeromonas_setA
VFG038387(gb|WP_011705717)	VFG038387	WP_011705717	(atsJ) Type VI secretion system protein [T6SS (VF0480) - Effector delivery system (VFC0086)] [Aeromonas hydrophila subsp. hydrophila ATCC 7966]	(atsJ) Type VI secretion system protein	T6SS	Effector delivery system	Aeromonas hydrophila subsp. hydrophila ATCC 7966	Aeromonas	Aeromonas hydrophila	atsJ	VFC0086	VF0480	vfdb_aeromonas_setA
VFG038389(gb|WP_011705718)	VFG038389	WP_011705718	(atsK) Type VI secretion system protein [T6SS (VF0480) - Effector delivery system (VFC0086)] [Aeromonas hydrophila subsp. hydrophila ATCC 7966]	(atsK) Type VI secretion system protein	T6SS	Effector delivery system	Aeromonas hydrophila subsp. hydrophila ATCC 7966	Aeromonas	Aeromonas hydrophila	atsK	VFC0086	VF0480	vfdb_aeromonas_setA
VFG038391(gb|WP_011705719)	VFG038391	WP_011705719	(atsL) Type VI secretion system protein [T6SS (VF0480) - Effector delivery system (VFC0086)] [Aeromonas hydrophila subsp. hydrophila ATCC 7966]	(atsL) Type VI secretion system protein	T6SS	Effector delivery system	Aeromonas hydrophila subsp. hydrophila ATCC 7966	Aeromonas	Aeromonas hydrophila	atsL	VFC0086	VF0480	vfdb_aeromonas_setA
VFG038393(gb|WP_010634228)	VFG038393	WP_010634228	(dotU) Type VI secretion system protein DotU [T6SS (VF0480) - Effector delivery system (VFC0086)] [Aeromonas hydrophila subsp. hydrophila ATCC 7966]	(dotU) Type VI secretion system protein DotU	T6SS	Effector delivery system	Aeromonas hydrophila subsp. hydrophila ATCC 7966	Aeromonas	Aeromonas hydrophila	dotU	VFC0086	VF0480	vfdb_aeromonas_setA
VFG038395(gb|WP_011705721)	VFG038395	WP_011705721	(clpB) type VI secretion system ATPase ClpV1 [T6SS (VF0480) - Effector delivery system (VFC0086)] [Aeromonas hydrophila subsp. hydrophila ATCC 7966]	(clpB) type VI secretion system ATPase ClpV1	T6SS	Effector delivery system	Aeromonas hydrophila subsp. hydrophila ATCC 7966	Aeromonas	Aeromonas hydrophila	clpB	VFC0086	VF0480	vfdb_aeromonas_setA
VFG038397(gb|WP_011705722)	VFG038397	WP_011705722	(vasH) sigma-54 dependent transcriptional regulator [T6SS (VF0480) - Effector delivery system (VFC0086)] [Aeromonas hydrophila subsp. hydrophila ATCC 7966]	(vasH) sigma-54 dependent transcriptional regulator	T6SS	Effector delivery system	Aeromonas hydrophila subsp. hydrophila ATCC 7966	Aeromonas	Aeromonas hydrophila	vasH	VFC0086	VF0480	vfdb_aeromonas_setA
VFG038399(gb|WP_011705723)	VFG038399	WP_011705723	(atsP) Type VI secretion system protein [T6SS (VF0480) - Effector delivery system (VFC0086)] [Aeromonas hydrophila subsp. hydrophila ATCC 7966]	(atsP) Type VI secretion system protein	T6SS	Effector delivery system	Aeromonas hydrophila subsp. hydrophila ATCC 7966	Aeromonas	Aeromonas hydrophila	atsP	VFC0086	VF0480	vfdb_aeromonas_setA
VFG038401(gb|WP_011705724)	VFG038401	WP_011705724	(atsQ) Type VI secretion system protein [T6SS (VF0480) - Effector delivery system (VFC0086)] [Aeromonas hydrophila subsp. hydrophila ATCC 7966]	(atsQ) Type VI secretion system protein	T6SS	Effector delivery system	Aeromonas hydrophila subsp. hydrophila ATCC 7966	Aeromonas	Aeromonas hydrophila	atsQ	VFC0086	VF0480	vfdb_aeromonas_setA
VFG038402(gb|WP_011705725)	VFG038402	WP_011705725	(vasK/icmF) Type VI secretion system protein [T6SS (VF0480) - Effector delivery system (VFC0086)] [Aeromonas hydrophila subsp. hydrophila ATCC 7966]	(vasK/icmF) Type VI secretion system protein	T6SS	Effector delivery system	Aeromonas hydrophila subsp. hydrophila ATCC 7966	Aeromonas	Aeromonas hydrophila	vasK	VFC0086	VF0480	vfdb_aeromonas_setA
VFG038403(gb|WP_011705726)	VFG038403	WP_011705726	(atsS) Type VI secretion system protein [T6SS (VF0480) - Effector delivery system (VFC0086)] [Aeromonas hydrophila subsp. hydrophila ATCC 7966]	(atsS) Type VI secretion system protein	T6SS	Effector delivery system	Aeromonas hydrophila subsp. hydrophila ATCC 7966	Aeromonas	Aeromonas hydrophila	atsS	VFC0086	VF0480	vfdb_aeromonas_setA
VFG038405(gb|WP_011705727)	VFG038405	WP_011705727	(AHA_RS09305) type VI secretion system PAAR protein [T6SS (VF0480) - Effector delivery system (VFC0086)] [Aeromonas hydrophila subsp. hydrophila ATCC 7966]	(AHA_RS09305) type VI secretion system PAAR protein	T6SS	Effector delivery system	Aeromonas hydrophila subsp. hydrophila ATCC 7966	Aeromonas	Aeromonas hydrophila	AHA	VFC0086	VF0480	vfdb_aeromonas_setA
VFG038407(gb|WP_011705728)	VFG038407	WP_011705728	(vgrG3) VgrG protein [T6SS (VF0480) - Effector delivery system (VFC0086)] [Aeromonas hydrophila subsp. hydrophila ATCC 7966]	(vgrG3) VgrG protein	T6SS	Effector delivery system	Aeromonas hydrophila subsp. hydrophila ATCC 7966	Aeromonas	Aeromonas hydrophila	vgrG3	VFC0086	VF0480	vfdb_aeromonas_setA
VFG038409(gb|WP_011704492)	VFG038409	WP_011704492	(fimA) fimbrial protein [Type I pili (VF0486) - Adherence (VFC0001)] [Aeromonas hydrophila ML09-119]	(fimA) fimbrial protein	Type I pili	Adherence	Aeromonas hydrophila ML09-119	Aeromonas	Aeromonas hydrophila	fimA	VFC0001	VF0486	vfdb_aeromonas_setA
VFG038413(gb|WP_043118350)	VFG038413	WP_043118350	(fimC) outer membrane usher protein [Type I pili (VF0486) - Adherence (VFC0001)] [Aeromonas hydrophila ML09-119]	(fimC) outer membrane usher protein	Type I pili	Adherence	Aeromonas hydrophila ML09-119	Aeromonas	Aeromonas hydrophila	fimC	VFC0001	VF0486	vfdb_aeromonas_setA
VFG038417(gb|WP_016349294)	VFG038417	WP_016349294	(fimD) fimbrial chaperone protein [Type I pili (VF0486) - Adherence (VFC0001)] [Aeromonas hydrophila ML09-119]	(fimD) fimbrial chaperone protein	Type I pili	Adherence	Aeromonas hydrophila ML09-119	Aeromonas	Aeromonas hydrophila	fimD	VFC0001	VF0486	vfdb_aeromonas_setA
VFG038421(gb|WP_043118352)	VFG038421	WP_043118352	(fimE) fimbrial protein [Type I pili (VF0486) - Adherence (VFC0001)] [Aeromonas hydrophila ML09-119]	(fimE) fimbrial protein	Type I pili	Adherence	Aeromonas hydrophila ML09-119	Aeromonas	Aeromonas hydrophila	fimE	VFC0001	VF0486	vfdb_aeromonas_setA
VFG038425(gb|WP_016349296)	VFG038425	WP_016349296	(fimF) fimbrial protein [Type I pili (VF0486) - Adherence (VFC0001)] [Aeromonas hydrophila ML09-119]	(fimF) fimbrial protein	Type I pili	Adherence	Aeromonas hydrophila ML09-119	Aeromonas	Aeromonas hydrophila	fimF	VFC0001	VF0486	vfdb_aeromonas_setA
VFG038429(gb|WP_016352167)	VFG038429	WP_016352167	(tapA) type IV pilus pilin subunit, pilA-like [Tap type IV pili (VF0475) - Adherence (VFC0001)] [Aeromonas hydrophila ML09-119]	(tapA) type IV pilus pilin subunit, pilA-like	Tap type IV pili	Adherence	Aeromonas hydrophila ML09-119	Aeromonas	Aeromonas hydrophila	tapA	VFC0001	VF0475	vfdb_aeromonas_setA
VFG038432(gb|WP_016352168)	VFG038432	WP_016352168	(tapB) type IV pilus assembly ATPase, PilB-like [Tap type IV pili (VF0475) - Adherence (VFC0001)] [Aeromonas hydrophila ML09-119]	(tapB) type IV pilus assembly ATPase, PilB-like	Tap type IV pili	Adherence	Aeromonas hydrophila ML09-119	Aeromonas	Aeromonas hydrophila	tapB	VFC0001	VF0475	vfdb_aeromonas_setA
VFG038436(gb|WP_016352169)	VFG038436	WP_016352169	(tapC) type IV fimbrial assembly protein, PilC-like [Tap type IV pili (VF0475) - Adherence (VFC0001)] [Aeromonas hydrophila ML09-119]	(tapC) type IV fimbrial assembly protein, PilC-like	Tap type IV pili	Adherence	Aeromonas hydrophila ML09-119	Aeromonas	Aeromonas hydrophila	tapC	VFC0001	VF0475	vfdb_aeromonas_setA
VFG038444(gb|WP_075384315)	VFG038444	WP_075384315	(tapM) type IV pilus assembly protein PilM [Tap type IV pili (VF0475) - Adherence (VFC0001)] [Aeromonas hydrophila ML09-119]	(tapM) type IV pilus assembly protein PilM	Tap type IV pili	Adherence	Aeromonas hydrophila ML09-119	Aeromonas	Aeromonas hydrophila	tapM	VFC0001	VF0475	vfdb_aeromonas_setA
VFG038448(gb|WP_016351632)	VFG038448	WP_016351632	(tapN) type IV pilus biogenesis protein PilN [Tap type IV pili (VF0475) - Adherence (VFC0001)] [Aeromonas hydrophila ML09-119]	(tapN) type IV pilus biogenesis protein PilN	Tap type IV pili	Adherence	Aeromonas hydrophila ML09-119	Aeromonas	Aeromonas hydrophila	tapN	VFC0001	VF0475	vfdb_aeromonas_setA
VFG038452(gb|WP_016351631)	VFG038452	WP_016351631	(tapO) type IV pilus biogenesis protein PilO [Tap type IV pili (VF0475) - Adherence (VFC0001)] [Aeromonas hydrophila ML09-119]	(tapO) type IV pilus biogenesis protein PilO	Tap type IV pili	Adherence	Aeromonas hydrophila ML09-119	Aeromonas	Aeromonas hydrophila	tapO	VFC0001	VF0475	vfdb_aeromonas_setA
VFG038456(gb|WP_016351630)	VFG038456	WP_016351630	(tapP) type IV pilus biogenesis protein PilP [Tap type IV pili (VF0475) - Adherence (VFC0001)] [Aeromonas hydrophila ML09-119]	(tapP) type IV pilus biogenesis protein PilP	Tap type IV pili	Adherence	Aeromonas hydrophila ML09-119	Aeromonas	Aeromonas hydrophila	tapP	VFC0001	VF0475	vfdb_aeromonas_setA
VFG038460(gb|WP_043119325)	VFG038460	WP_043119325	(tapQ) type IV pilus secretin PilQ [Tap type IV pili (VF0475) - Adherence (VFC0001)] [Aeromonas hydrophila ML09-119]	(tapQ) type IV pilus secretin PilQ	Tap type IV pili	Adherence	Aeromonas hydrophila ML09-119	Aeromonas	Aeromonas hydrophila	tapQ	VFC0001	VF0475	vfdb_aeromonas_setA
VFG038464(gb|WP_011707389)	VFG038464	WP_011707389	(tapT) twitching ATPase [Tap type IV pili (VF0475) - Adherence (VFC0001)] [Aeromonas hydrophila ML09-119]	(tapT) twitching ATPase	Tap type IV pili	Adherence	Aeromonas hydrophila ML09-119	Aeromonas	Aeromonas hydrophila	tapT	VFC0001	VF0475	vfdb_aeromonas_setA
VFG038468(gb|WP_016351972)	VFG038468	WP_016351972	(tapU) twitching ATPase [Tap type IV pili (VF0475) - Adherence (VFC0001)] [Aeromonas hydrophila ML09-119]	(tapU) twitching ATPase	Tap type IV pili	Adherence	Aeromonas hydrophila ML09-119	Aeromonas	Aeromonas hydrophila	tapU	VFC0001	VF0475	vfdb_aeromonas_setA
VFG038472(gb|WP_011706550)	VFG038472	WP_011706550	(tapW) twitching ATPase [Tap type IV pili (VF0475) - Adherence (VFC0001)] [Aeromonas hydrophila ML09-119]	(tapW) twitching ATPase	Tap type IV pili	Adherence	Aeromonas hydrophila ML09-119	Aeromonas	Aeromonas hydrophila	tapW	VFC0001	VF0475	vfdb_aeromonas_setA
VFG038476(gb|WP_016349433)	VFG038476	WP_016349433	(tppA) type IV pilus pseudopilin [Tap type IV pili (VF0475) - Adherence (VFC0001)] [Aeromonas hydrophila ML09-119]	(tppA) type IV pilus pseudopilin	Tap type IV pili	Adherence	Aeromonas hydrophila ML09-119	Aeromonas	Aeromonas hydrophila	tppA	VFC0001	VF0475	vfdb_aeromonas_setA
VFG038480(gb|WP_016349429)	VFG038480	WP_016349429	(tppB) type IV pilus pseudopilin [Tap type IV pili (VF0475) - Adherence (VFC0001)] [Aeromonas hydrophila ML09-119]	(tppB) type IV pilus pseudopilin	Tap type IV pili	Adherence	Aeromonas hydrophila ML09-119	Aeromonas	Aeromonas hydrophila	tppB	VFC0001	VF0475	vfdb_aeromonas_setA
VFG038488(gb|WP_016349432)	VFG038488	WP_016349432	(tapY1) type IV pilus biogenesis protein [Tap type IV pili (VF0475) - Adherence (VFC0001)] [Aeromonas hydrophila ML09-119]	(tapY1) type IV pilus biogenesis protein	Tap type IV pili	Adherence	Aeromonas hydrophila ML09-119	Aeromonas	Aeromonas hydrophila	tapY1	VFC0001	VF0475	vfdb_aeromonas_setA
VFG038493(gb|WP_016349428)	VFG038493	WP_016349428	(tppE) type IV pilus pseudopilin [Tap type IV pili (VF0475) - Adherence (VFC0001)] [Aeromonas hydrophila ML09-119]	(tppE) type IV pilus pseudopilin	Tap type IV pili	Adherence	Aeromonas hydrophila ML09-119	Aeromonas	Aeromonas hydrophila	tppE	VFC0001	VF0475	vfdb_aeromonas_setA
VFG038497(gb|WP_016351992)	VFG038497	WP_016351992	(tppF) type IV pilus pseudopilin [Tap type IV pili (VF0475) - Adherence (VFC0001)] [Aeromonas hydrophila ML09-119]	(tppF) type IV pilus pseudopilin	Tap type IV pili	Adherence	Aeromonas hydrophila ML09-119	Aeromonas	Aeromonas hydrophila	tppF	VFC0001	VF0475	vfdb_aeromonas_setA
VFG038501(gb|WP_043119142)	VFG038501	WP_043119142	(tapV) type IV pilus assembly protein TapV [Tap type IV pili (VF0475) - Adherence (VFC0001)] [Aeromonas hydrophila ML09-119]	(tapV) type IV pilus assembly protein TapV	Tap type IV pili	Adherence	Aeromonas hydrophila ML09-119	Aeromonas	Aeromonas hydrophila	tapV	VFC0001	VF0475	vfdb_aeromonas_setA
VFG038505(gb|WP_011705643)	VFG038505	WP_011705643	(tapF) type IV pilus biogenesis/stability protein, pilW-like [Tap type IV pili (VF0475) - Adherence (VFC0001)] [Aeromonas hydrophila ML09-119]	(tapF) type IV pilus biogenesis/stability protein, pilW-like	Tap type IV pili	Adherence	Aeromonas hydrophila ML09-119	Aeromonas	Aeromonas hydrophila	tapF	VFC0001	VF0475	vfdb_aeromonas_setA
VFG038509(gb|WP_016350158)	VFG038509	WP_016350158	(flpL) Flp pilus pseudopilin [Flp type IV pili (VF0476) - Adherence (VFC0001)] [Aeromonas hydrophila ML09-119]	(flpL) Flp pilus pseudopilin	Flp type IV pili	Adherence	Aeromonas hydrophila ML09-119	Aeromonas	Aeromonas hydrophila	flpL	VFC0001	VF0476	vfdb_aeromonas_setA
VFG038513(gb|WP_016350157)	VFG038513	WP_016350157	(flpK) Flp pilus pseudopilin [Flp type IV pili (VF0476) - Adherence (VFC0001)] [Aeromonas hydrophila ML09-119]	(flpK) Flp pilus pseudopilin	Flp type IV pili	Adherence	Aeromonas hydrophila ML09-119	Aeromonas	Aeromonas hydrophila	flpK	VFC0001	VF0476	vfdb_aeromonas_setA
VFG038517(gb|WP_016350156)	VFG038517	WP_016350156	(flpJ) Flp pilus pseudopilin [Flp type IV pili (VF0476) - Adherence (VFC0001)] [Aeromonas hydrophila ML09-119]	(flpJ) Flp pilus pseudopilin	Flp type IV pili	Adherence	Aeromonas hydrophila ML09-119	Aeromonas	Aeromonas hydrophila	flpJ	VFC0001	VF0476	vfdb_aeromonas_setA
VFG038521(gb|WP_016350155)	VFG038521	WP_016350155	(flpI) Flp pilus assembly protein FlpI [Flp type IV pili (VF0476) - Adherence (VFC0001)] [Aeromonas hydrophila ML09-119]	(flpI) Flp pilus assembly protein FlpI	Flp type IV pili	Adherence	Aeromonas hydrophila ML09-119	Aeromonas	Aeromonas hydrophila	flpI	VFC0001	VF0476	vfdb_aeromonas_setA
VFG038525(gb|WP_043118801)	VFG038525	WP_043118801	(flpH) Flp pilus assembly protein FlpH [Flp type IV pili (VF0476) - Adherence (VFC0001)] [Aeromonas hydrophila ML09-119]	(flpH) Flp pilus assembly protein FlpH	Flp type IV pili	Adherence	Aeromonas hydrophila ML09-119	Aeromonas	Aeromonas hydrophila	flpH	VFC0001	VF0476	vfdb_aeromonas_setA
VFG038529(gb|WP_016350153)	VFG038529	WP_016350153	(flpG) Flp pilus assembly protein FlpG [Flp type IV pili (VF0476) - Adherence (VFC0001)] [Aeromonas hydrophila ML09-119]	(flpG) Flp pilus assembly protein FlpG	Flp type IV pili	Adherence	Aeromonas hydrophila ML09-119	Aeromonas	Aeromonas hydrophila	flpG	VFC0001	VF0476	vfdb_aeromonas_setA
VFG038533(gb|WP_016350152)	VFG038533	WP_016350152	(flpF) traffic ATPase [Flp type IV pili (VF0476) - Adherence (VFC0001)] [Aeromonas hydrophila ML09-119]	(flpF) traffic ATPase	Flp type IV pili	Adherence	Aeromonas hydrophila ML09-119	Aeromonas	Aeromonas hydrophila	flpF	VFC0001	VF0476	vfdb_aeromonas_setA
VFG038537(gb|WP_016350151)	VFG038537	WP_016350151	(flpE) Flp pilus assembly protein, ATPase [Flp type IV pili (VF0476) - Adherence (VFC0001)] [Aeromonas hydrophila ML09-119]	(flpE) Flp pilus assembly protein, ATPase	Flp type IV pili	Adherence	Aeromonas hydrophila ML09-119	Aeromonas	Aeromonas hydrophila	flpE	VFC0001	VF0476	vfdb_aeromonas_setA
VFG038541(gb|WP_016350150)	VFG038541	WP_016350150	(flpD) Flp pilus assembly protein FlpD [Flp type IV pili (VF0476) - Adherence (VFC0001)] [Aeromonas hydrophila ML09-119]	(flpD) Flp pilus assembly protein FlpD	Flp type IV pili	Adherence	Aeromonas hydrophila ML09-119	Aeromonas	Aeromonas hydrophila	flpD	VFC0001	VF0476	vfdb_aeromonas_setA
VFG038545(gb|WP_043118798)	VFG038545	WP_043118798	(flpC) Flp pilus secretin FlpC [Flp type IV pili (VF0476) - Adherence (VFC0001)] [Aeromonas hydrophila ML09-119]	(flpC) Flp pilus secretin FlpC	Flp type IV pili	Adherence	Aeromonas hydrophila ML09-119	Aeromonas	Aeromonas hydrophila	flpC	VFC0001	VF0476	vfdb_aeromonas_setA
VFG038549(gb|WP_016350148)	VFG038549	WP_016350148	(flpB) Flp pilus assembly protein [Flp type IV pili (VF0476) - Adherence (VFC0001)] [Aeromonas hydrophila ML09-119]	(flpB) Flp pilus assembly protein	Flp type IV pili	Adherence	Aeromonas hydrophila ML09-119	Aeromonas	Aeromonas hydrophila	flpB	VFC0001	VF0476	vfdb_aeromonas_setA
VFG038553(gb|WP_016350147)	VFG038553	WP_016350147	(flpA) prepilin peptidase [Flp type IV pili (VF0476) - Adherence (VFC0001)] [Aeromonas hydrophila ML09-119]	(flpA) prepilin peptidase	Flp type IV pili	Adherence	Aeromonas hydrophila ML09-119	Aeromonas	Aeromonas hydrophila	flpA	VFC0001	VF0476	vfdb_aeromonas_setA
VFG038557(gb|WP_011705350)	VFG038557	WP_011705350	(flp1) Flp pilus pilin subunit [Flp type IV pili (VF0476) - Adherence (VFC0001)] [Aeromonas hydrophila ML09-119]	(flp1) Flp pilus pilin subunit	Flp type IV pili	Adherence	Aeromonas hydrophila ML09-119	Aeromonas	Aeromonas hydrophila	flp1	VFC0001	VF0476	vfdb_aeromonas_setA
VFG038561(gb|WP_016349168)	VFG038561	WP_016349168	(mshQ) MSHA (mannose-sensitive hemagglutinin) pili biogenesis protein MshQ [MSHA type IV pili (VF0477) - Adherence (VFC0001)] [Aeromonas hydrophila ML09-119]	(mshQ) MSHA (mannose-sensitive hemagglutinin) pili biogenesis protein MshQ	MSHA type IV pili	Adherence	Aeromonas hydrophila ML09-119	Aeromonas	Aeromonas hydrophila	mshQ	VFC0001	VF0477	vfdb_aeromonas_setA
VFG038564(gb|WP_016349167)	VFG038564	WP_016349167	(mshP) hypothetical protein [MSHA type IV pili (VF0477) - Adherence (VFC0001)] [Aeromonas hydrophila ML09-119]	(mshP) hypothetical protein	MSHA type IV pili	Adherence	Aeromonas hydrophila ML09-119	Aeromonas	Aeromonas hydrophila	mshP	VFC0001	VF0477	vfdb_aeromonas_setA
VFG038568(gb|WP_016349166)	VFG038568	WP_016349166	(mshO) MSHA (mannose-sensitive hemagglutinin) pili biogenesis protein MshO [MSHA type IV pili (VF0477) - Adherence (VFC0001)] [Aeromonas hydrophila ML09-119]	(mshO) MSHA (mannose-sensitive hemagglutinin) pili biogenesis protein MshO	MSHA type IV pili	Adherence	Aeromonas hydrophila ML09-119	Aeromonas	Aeromonas hydrophila	mshO	VFC0001	VF0477	vfdb_aeromonas_setA
VFG038572(gb|WP_016349165)	VFG038572	WP_016349165	(mshD) MSHA (mannose-sensitive hemagglutinin) pili minor prepilin protein MshD [MSHA type IV pili (VF0477) - Adherence (VFC0001)] [Aeromonas hydrophila ML09-119]	(mshD) MSHA (mannose-sensitive hemagglutinin) pili minor prepilin protein MshD	MSHA type IV pili	Adherence	Aeromonas hydrophila ML09-119	Aeromonas	Aeromonas hydrophila	mshD	VFC0001	VF0477	vfdb_aeromonas_setA
VFG038576(gb|WP_016349164)	VFG038576	WP_016349164	(mshC) MSHA (mannose-sensitive hemagglutinin) pili minor prepilin protein MshC [MSHA type IV pili (VF0477) - Adherence (VFC0001)] [Aeromonas hydrophila ML09-119]	(mshC) MSHA (mannose-sensitive hemagglutinin) pili minor prepilin protein MshC	MSHA type IV pili	Adherence	Aeromonas hydrophila ML09-119	Aeromonas	Aeromonas hydrophila	mshC	VFC0001	VF0477	vfdb_aeromonas_setA
VFG038578(gb|WP_016349163)	VFG038578	WP_016349163	(mshA) prepilin-type N-terminal cleavage/methylation domain-containing protein [MSHA type IV pili (VF0477) - Adherence (VFC0001)] [Aeromonas hydrophila ML09-119]	(mshA) prepilin-type N-terminal cleavage/methylation domain-containing protein	MSHA type IV pili	Adherence	Aeromonas hydrophila ML09-119	Aeromonas	Aeromonas hydrophila	mshA	VFC0001	VF0477	vfdb_aeromonas_setA
VFG038581(gb|WP_043118279)	VFG038581	WP_043118279	(mshB) MSHA (mannose-sensitive hemagglutinin) pili minor prepilin protein MshB [MSHA type IV pili (VF0477) - Adherence (VFC0001)] [Aeromonas hydrophila ML09-119]	(mshB) MSHA (mannose-sensitive hemagglutinin) pili minor prepilin protein MshB	MSHA type IV pili	Adherence	Aeromonas hydrophila ML09-119	Aeromonas	Aeromonas hydrophila	mshB	VFC0001	VF0477	vfdb_aeromonas_setA
VFG038584(gb|WP_016349161)	VFG038584	WP_016349161	(mshF) hypothetical protein [MSHA type IV pili (VF0477) - Adherence (VFC0001)] [Aeromonas hydrophila ML09-119]	(mshF) hypothetical protein	MSHA type IV pili	Adherence	Aeromonas hydrophila ML09-119	Aeromonas	Aeromonas hydrophila	mshF	VFC0001	VF0477	vfdb_aeromonas_setA
VFG038587(gb|WP_016349160)	VFG038587	WP_016349160	(mshG) MSHA (mannose-sensitive hemagglutinin) pili biogenesis protein MshG, GspF-like [MSHA type IV pili (VF0477) - Adherence (VFC0001)] [Aeromonas hydrophila ML09-119]	(mshG) MSHA (mannose-sensitive hemagglutinin) pili biogenesis protein MshG, GspF-like	MSHA type IV pili	Adherence	Aeromonas hydrophila ML09-119	Aeromonas	Aeromonas hydrophila	mshG	VFC0001	VF0477	vfdb_aeromonas_setA
VFG038590(gb|WP_043118275)	VFG038590	WP_043118275	(mshE) ATPase protein MshE, GspE-like [MSHA type IV pili (VF0477) - Adherence (VFC0001)] [Aeromonas hydrophila ML09-119]	(mshE) ATPase protein MshE, GspE-like	MSHA type IV pili	Adherence	Aeromonas hydrophila ML09-119	Aeromonas	Aeromonas hydrophila	mshE	VFC0001	VF0477	vfdb_aeromonas_setA
VFG038593(gb|WP_016349158)	VFG038593	WP_016349158	(mshN) Tetratricopeptide repeat protein, PilF-like [MSHA type IV pili (VF0477) - Adherence (VFC0001)] [Aeromonas hydrophila ML09-119]	(mshN) Tetratricopeptide repeat protein, PilF-like	MSHA type IV pili	Adherence	Aeromonas hydrophila ML09-119	Aeromonas	Aeromonas hydrophila	mshN	VFC0001	VF0477	vfdb_aeromonas_setA
VFG038596(gb|WP_016349157)	VFG038596	WP_016349157	(mshM) membrane protein with ATPase domain, GspA-like [MSHA type IV pili (VF0477) - Adherence (VFC0001)] [Aeromonas hydrophila ML09-119]	(mshM) membrane protein with ATPase domain, GspA-like	MSHA type IV pili	Adherence	Aeromonas hydrophila ML09-119	Aeromonas	Aeromonas hydrophila	mshM	VFC0001	VF0477	vfdb_aeromonas_setA
VFG038600(gb|WP_016349156)	VFG038600	WP_016349156	(mshL) MSHA (mannose-sensitive hemagglutinin) pili biogenesis protein MshL, outer membrane secretin, GspD-like [MSHA type IV pili (VF0477) - Adherence (VFC0001)] [Aeromonas hydrophila ML09-119]	(mshL) MSHA (mannose-sensitive hemagglutinin) pili biogenesis protein MshL, outer membrane secretin, GspD-like	MSHA type IV pili	Adherence	Aeromonas hydrophila ML09-119	Aeromonas	Aeromonas hydrophila	mshL	VFC0001	VF0477	vfdb_aeromonas_setA
VFG038603(gb|WP_016349155)	VFG038603	WP_016349155	(mshK) MSHA (mannose-sensitive hemagglutinin) pili biogenesis protein MshK, periplasmic protein, GspC-like [MSHA type IV pili (VF0477) - Adherence (VFC0001)] [Aeromonas hydrophila ML09-119]	(mshK) MSHA (mannose-sensitive hemagglutinin) pili biogenesis protein MshK, periplasmic protein, GspC-like	MSHA type IV pili	Adherence	Aeromonas hydrophila ML09-119	Aeromonas	Aeromonas hydrophila	mshK	VFC0001	VF0477	vfdb_aeromonas_setA
VFG038607(gb|WP_016349154)	VFG038607	WP_016349154	(mshJ) MSHA (mannose-sensitive hemagglutinin) pili biogenesis protein MshJ, bitopic inner membrane protein, GspM-like [MSHA type IV pili (VF0477) - Adherence (VFC0001)] [Aeromonas hydrophila ML09-119]	(mshJ) MSHA (mannose-sensitive hemagglutinin) pili biogenesis protein MshJ, bitopic inner membrane protein, GspM-like	MSHA type IV pili	Adherence	Aeromonas hydrophila ML09-119	Aeromonas	Aeromonas hydrophila	mshJ	VFC0001	VF0477	vfdb_aeromonas_setA
VFG038611(gb|WP_016349153)	VFG038611	WP_016349153	(mshI1) MSHA (mannose-sensitive hemagglutinin) pili biogenesis protein MshI1, bitopic inner membrane protein [MSHA type IV pili (VF0477) - Adherence (VFC0001)] [Aeromonas hydrophila ML09-119]	(mshI1) MSHA (mannose-sensitive hemagglutinin) pili biogenesis protein MshI1, bitopic inner membrane protein	MSHA type IV pili	Adherence	Aeromonas hydrophila ML09-119	Aeromonas	Aeromonas hydrophila	mshI1	VFC0001	VF0477	vfdb_aeromonas_setA
VFG038615(gb|WP_016349152)	VFG038615	WP_016349152	(mshI) MSHA (mannose-sensitive hemagglutinin) pili biogenesis protein MshI, bitopic inner membrane protein [MSHA type IV pili (VF0477) - Adherence (VFC0001)] [Aeromonas hydrophila ML09-119]	(mshI) MSHA (mannose-sensitive hemagglutinin) pili biogenesis protein MshI, bitopic inner membrane protein	MSHA type IV pili	Adherence	Aeromonas hydrophila ML09-119	Aeromonas	Aeromonas hydrophila	mshI	VFC0001	VF0477	vfdb_aeromonas_setA
VFG038619(gb|WP_016349413)	VFG038619	WP_016349413	(motX) sodium-type flagellar motor component [Polar flagella (VF0473) - Motility (VFC0204)] [Aeromonas hydrophila ML09-119]	(motX) sodium-type flagellar motor component	Polar flagella	Motility	Aeromonas hydrophila ML09-119	Aeromonas	Aeromonas hydrophila	motX	VFC0204	VF0473	vfdb_aeromonas_setA
VFG038623(gb|WP_011705271)	VFG038623	WP_011705271	(fliE) flagellar hook-basal body complex protein FliE [Polar flagella (VF0473) - Motility (VFC0204)] [Aeromonas hydrophila ML09-119]	(fliE) flagellar hook-basal body complex protein FliE	Polar flagella	Motility	Aeromonas hydrophila ML09-119	Aeromonas	Aeromonas hydrophila	fliE	VFC0204	VF0473	vfdb_aeromonas_setA
VFG038627(gb|WP_016350050)	VFG038627	WP_016350050	(fliF) flagellar MS-ring protein [Polar flagella (VF0473) - Motility (VFC0204)] [Aeromonas hydrophila ML09-119]	(fliF) flagellar MS-ring protein	Polar flagella	Motility	Aeromonas hydrophila ML09-119	Aeromonas	Aeromonas hydrophila	fliF	VFC0204	VF0473	vfdb_aeromonas_setA
VFG038631(gb|WP_011705273)	VFG038631	WP_011705273	(fliG) flagellar motor switch protein G [Polar flagella (VF0473) - Motility (VFC0204)] [Aeromonas hydrophila ML09-119]	(fliG) flagellar motor switch protein G	Polar flagella	Motility	Aeromonas hydrophila ML09-119	Aeromonas	Aeromonas hydrophila	fliG	VFC0204	VF0473	vfdb_aeromonas_setA
VFG038635(gb|WP_016350051)	VFG038635	WP_016350051	(fliH) flagellar assembly protein FliH [Polar flagella (VF0473) - Motility (VFC0204)] [Aeromonas hydrophila ML09-119]	(fliH) flagellar assembly protein FliH	Polar flagella	Motility	Aeromonas hydrophila ML09-119	Aeromonas	Aeromonas hydrophila	fliH	VFC0204	VF0473	vfdb_aeromonas_setA
VFG038639(gb|WP_011705275)	VFG038639	WP_011705275	(fliI) flagellum-specific ATP synthase [Polar flagella (VF0473) - Motility (VFC0204)] [Aeromonas hydrophila ML09-119]	(fliI) flagellum-specific ATP synthase	Polar flagella	Motility	Aeromonas hydrophila ML09-119	Aeromonas	Aeromonas hydrophila	fliI	VFC0204	VF0473	vfdb_aeromonas_setA
VFG038643(gb|WP_011705276)	VFG038643	WP_011705276	(fliJ) flagellar export protein FliJ [Polar flagella (VF0473) - Motility (VFC0204)] [Aeromonas hydrophila ML09-119]	(fliJ) flagellar export protein FliJ	Polar flagella	Motility	Aeromonas hydrophila ML09-119	Aeromonas	Aeromonas hydrophila	fliJ	VFC0204	VF0473	vfdb_aeromonas_setA
VFG038647(gb|WP_016350053)	VFG038647	WP_016350053	(fliK) flagellar hook-length control protein FliK [Polar flagella (VF0473) - Motility (VFC0204)] [Aeromonas hydrophila ML09-119]	(fliK) flagellar hook-length control protein FliK	Polar flagella	Motility	Aeromonas hydrophila ML09-119	Aeromonas	Aeromonas hydrophila	fliK	VFC0204	VF0473	vfdb_aeromonas_setA
VFG038651(gb|WP_011705278)	VFG038651	WP_011705278	(fliL) flagellar basal body-associated protein FliL [Polar flagella (VF0473) - Motility (VFC0204)] [Aeromonas hydrophila ML09-119]	(fliL) flagellar basal body-associated protein FliL	Polar flagella	Motility	Aeromonas hydrophila ML09-119	Aeromonas	Aeromonas hydrophila	fliL	VFC0204	VF0473	vfdb_aeromonas_setA
VFG038655(gb|WP_011705279)	VFG038655	WP_011705279	(fliM) flagellar motor switch protein FliM [Polar flagella (VF0473) - Motility (VFC0204)] [Aeromonas hydrophila ML09-119]	(fliM) flagellar motor switch protein FliM	Polar flagella	Motility	Aeromonas hydrophila ML09-119	Aeromonas	Aeromonas hydrophila	fliM	VFC0204	VF0473	vfdb_aeromonas_setA
VFG038659(gb|WP_011705280)	VFG038659	WP_011705280	(fliN) flagellar motor switch protein FliN [Polar flagella (VF0473) - Motility (VFC0204)] [Aeromonas hydrophila ML09-119]	(fliN) flagellar motor switch protein FliN	Polar flagella	Motility	Aeromonas hydrophila ML09-119	Aeromonas	Aeromonas hydrophila	fliN	VFC0204	VF0473	vfdb_aeromonas_setA
VFG038663(gb|WP_005298795)	VFG038663	WP_005298795	(fliO) flagellar biosynthesis protein, FliO [Polar flagella (VF0473) - Motility (VFC0204)] [Aeromonas hydrophila ML09-119]	(fliO) flagellar biosynthesis protein, FliO	Polar flagella	Motility	Aeromonas hydrophila ML09-119	Aeromonas	Aeromonas hydrophila	fliO	VFC0204	VF0473	vfdb_aeromonas_setA
VFG038667(gb|WP_016350054)	VFG038667	WP_016350054	(fliP) flagellar biosynthesis protein FliP [Polar flagella (VF0473) - Motility (VFC0204)] [Aeromonas hydrophila ML09-119]	(fliP) flagellar biosynthesis protein FliP	Polar flagella	Motility	Aeromonas hydrophila ML09-119	Aeromonas	Aeromonas hydrophila	fliP	VFC0204	VF0473	vfdb_aeromonas_setA
VFG038671(gb|WP_011705282)	VFG038671	WP_011705282	(fliQ) flagellar biosynthetic protein FliQ [Polar flagella (VF0473) - Motility (VFC0204)] [Aeromonas hydrophila ML09-119]	(fliQ) flagellar biosynthetic protein FliQ	Polar flagella	Motility	Aeromonas hydrophila ML09-119	Aeromonas	Aeromonas hydrophila	fliQ	VFC0204	VF0473	vfdb_aeromonas_setA
VFG038675(gb|WP_011705283)	VFG038675	WP_011705283	(fliR) flagellar biosynthesis protein FliR [Polar flagella (VF0473) - Motility (VFC0204)] [Aeromonas hydrophila ML09-119]	(fliR) flagellar biosynthesis protein FliR	Polar flagella	Motility	Aeromonas hydrophila ML09-119	Aeromonas	Aeromonas hydrophila	fliR	VFC0204	VF0473	vfdb_aeromonas_setA
VFG038679(gb|WP_016350055)	VFG038679	WP_016350055	(flhB) flagellar biosynthetic protein FlhB [Polar flagella (VF0473) - Motility (VFC0204)] [Aeromonas hydrophila ML09-119]	(flhB) flagellar biosynthetic protein FlhB	Polar flagella	Motility	Aeromonas hydrophila ML09-119	Aeromonas	Aeromonas hydrophila	flhB	VFC0204	VF0473	vfdb_aeromonas_setA
VFG038683(gb|WP_016350056)	VFG038683	WP_016350056	(flhA) flagellar biosynthesis protein FlhA [Polar flagella (VF0473) - Motility (VFC0204)] [Aeromonas hydrophila ML09-119]	(flhA) flagellar biosynthesis protein FlhA	Polar flagella	Motility	Aeromonas hydrophila ML09-119	Aeromonas	Aeromonas hydrophila	flhA	VFC0204	VF0473	vfdb_aeromonas_setA
VFG038687(gb|WP_016350057)	VFG038687	WP_016350057	(flhF) flagellar biosynthesis protein FlhF [Polar flagella (VF0473) - Motility (VFC0204)] [Aeromonas hydrophila ML09-119]	(flhF) flagellar biosynthesis protein FlhF	Polar flagella	Motility	Aeromonas hydrophila ML09-119	Aeromonas	Aeromonas hydrophila	flhF	VFC0204	VF0473	vfdb_aeromonas_setA
VFG038691(gb|WP_010634619)	VFG038691	WP_010634619	(flhG) CobQ/CobB/MinD/ParA family protein [Polar flagella (VF0473) - Motility (VFC0204)] [Aeromonas hydrophila ML09-119]	(flhG) CobQ/CobB/MinD/ParA family protein	Polar flagella	Motility	Aeromonas hydrophila ML09-119	Aeromonas	Aeromonas hydrophila	flhG	VFC0204	VF0473	vfdb_aeromonas_setA
VFG038695(gb|WP_017409955)	VFG038695	WP_017409955	(fliA) flagellar biosynthesis sigma factor [Polar flagella (VF0473) - Motility (VFC0204)] [Aeromonas hydrophila ML09-119]	(fliA) flagellar biosynthesis sigma factor	Polar flagella	Motility	Aeromonas hydrophila ML09-119	Aeromonas	Aeromonas hydrophila	fliA	VFC0204	VF0473	vfdb_aeromonas_setA
VFG038699(gb|WP_010634617)	VFG038699	WP_010634617	(cheY) chemotaxis protein CheY [Polar flagella (VF0473) - Motility (VFC0204)] [Aeromonas hydrophila ML09-119]	(cheY) chemotaxis protein CheY	Polar flagella	Motility	Aeromonas hydrophila ML09-119	Aeromonas	Aeromonas hydrophila	cheY	VFC0204	VF0473	vfdb_aeromonas_setA
VFG038703(gb|WP_011705289)	VFG038703	WP_011705289	(cheZ) chemotaxis protein CheZ [Polar flagella (VF0473) - Motility (VFC0204)] [Aeromonas hydrophila ML09-119]	(cheZ) chemotaxis protein CheZ	Polar flagella	Motility	Aeromonas hydrophila ML09-119	Aeromonas	Aeromonas hydrophila	cheZ	VFC0204	VF0473	vfdb_aeromonas_setA
VFG038707(gb|WP_016350059)	VFG038707	WP_016350059	(cheA-2) chemotaxis protein CheA [Polar flagella (VF0473) - Motility (VFC0204)] [Aeromonas hydrophila ML09-119]	(cheA-2) chemotaxis protein CheA	Polar flagella	Motility	Aeromonas hydrophila ML09-119	Aeromonas	Aeromonas hydrophila	cheA	VFC0204	VF0473	vfdb_aeromonas_setA
VFG038711(gb|WP_016350060)	VFG038711	WP_016350060	(cheB-2) chemotaxis-specific methylesterase [Polar flagella (VF0473) - Motility (VFC0204)] [Aeromonas hydrophila ML09-119]	(cheB-2) chemotaxis-specific methylesterase	Polar flagella	Motility	Aeromonas hydrophila ML09-119	Aeromonas	Aeromonas hydrophila	cheB	VFC0204	VF0473	vfdb_aeromonas_setA
VFG038715(gb|WP_024943899)	VFG038715	WP_024943899	(motA) chemotaxis protein MotA [Polar flagella (VF0473) - Motility (VFC0204)] [Aeromonas hydrophila ML09-119]	(motA) chemotaxis protein MotA	Polar flagella	Motility	Aeromonas hydrophila ML09-119	Aeromonas	Aeromonas hydrophila	motA	VFC0204	VF0473	vfdb_aeromonas_setA
VFG038719(gb|WP_016350061)	VFG038719	WP_016350061	(pomB) ompA family protein [Polar flagella (VF0473) - Motility (VFC0204)] [Aeromonas hydrophila ML09-119]	(pomB) ompA family protein	Polar flagella	Motility	Aeromonas hydrophila ML09-119	Aeromonas	Aeromonas hydrophila	pomB	VFC0204	VF0473	vfdb_aeromonas_setA
VFG038723(gb|WP_011705294)	VFG038723	WP_011705294	(AHML_RS07540) CobQ/CobB/MinD/ParA family protein [Polar flagella (VF0473) - Motility (VFC0204)] [Aeromonas hydrophila ML09-119]	(AHML_RS07540) CobQ/CobB/MinD/ParA family protein	Polar flagella	Motility	Aeromonas hydrophila ML09-119	Aeromonas	Aeromonas hydrophila	AHML	VFC0204	VF0473	vfdb_aeromonas_setA
VFG038727(gb|WP_011705295)	VFG038727	WP_011705295	(cheW) chemotaxis protein CheW [Polar flagella (VF0473) - Motility (VFC0204)] [Aeromonas hydrophila ML09-119]	(cheW) chemotaxis protein CheW	Polar flagella	Motility	Aeromonas hydrophila ML09-119	Aeromonas	Aeromonas hydrophila	cheW	VFC0204	VF0473	vfdb_aeromonas_setA
VFG038731(gb|WP_016350347)	VFG038731	WP_016350347	(flaA) flagellin [Polar flagella (VF0473) - Motility (VFC0204)] [Aeromonas hydrophila ML09-119]	(flaA) flagellin	Polar flagella	Motility	Aeromonas hydrophila ML09-119	Aeromonas	Aeromonas hydrophila	flaA	VFC0204	VF0473	vfdb_aeromonas_setA
VFG038735	VFG038735	NA	(flaB) flagellin [Polar flagella (VF0473) - Motility (VFC0204)] [Aeromonas hydrophila ML09-119]	(flaB) flagellin	Polar flagella	Motility	Aeromonas hydrophila ML09-119	Aeromonas	Aeromonas hydrophila	flaB	VFC0204	VF0473	vfdb_aeromonas_setA
VFG038740(gb|WP_043118910)	VFG038740	WP_043118910	(flaG) flagellin protein [Polar flagella (VF0473) - Motility (VFC0204)] [Aeromonas hydrophila ML09-119]	(flaG) flagellin protein	Polar flagella	Motility	Aeromonas hydrophila ML09-119	Aeromonas	Aeromonas hydrophila	flaG	VFC0204	VF0473	vfdb_aeromonas_setA
VFG038743(gb|WP_016350352)	VFG038743	WP_016350352	(flaH) flagellar hook-associated protein 2 [Polar flagella (VF0473) - Motility (VFC0204)] [Aeromonas hydrophila ML09-119]	(flaH) flagellar hook-associated protein 2	Polar flagella	Motility	Aeromonas hydrophila ML09-119	Aeromonas	Aeromonas hydrophila	flaH	VFC0204	VF0473	vfdb_aeromonas_setA
VFG038747(gb|WP_016350353)	VFG038747	WP_016350353	(flaJ) flagellar specific chaperone FlaJ/FliS [Polar flagella (VF0473) - Motility (VFC0204)] [Aeromonas hydrophila ML09-119]	(flaJ) flagellar specific chaperone FlaJ/FliS	Polar flagella	Motility	Aeromonas hydrophila ML09-119	Aeromonas	Aeromonas hydrophila	flaJ	VFC0204	VF0473	vfdb_aeromonas_setA
VFG038753(gb|WP_024944879)	VFG038753	WP_024944879	(motY) sodium-type flagellar protein MotY [Polar flagella (VF0473) - Motility (VFC0204)] [Aeromonas hydrophila ML09-119]	(motY) sodium-type flagellar protein MotY	Polar flagella	Motility	Aeromonas hydrophila ML09-119	Aeromonas	Aeromonas hydrophila	motY	VFC0204	VF0473	vfdb_aeromonas_setA
VFG038756(gb|WP_011706626)	VFG038756	WP_011706626	(flrC) transcriptional activator [Polar flagella (VF0473) - Motility (VFC0204)] [Aeromonas hydrophila ML09-119]	(flrC) transcriptional activator	Polar flagella	Motility	Aeromonas hydrophila ML09-119	Aeromonas	Aeromonas hydrophila	flrC	VFC0204	VF0473	vfdb_aeromonas_setA
VFG038760(gb|WP_016351312)	VFG038760	WP_016351312	(flrB) two-component sensor kinase [Polar flagella (VF0473) - Motility (VFC0204)] [Aeromonas hydrophila ML09-119]	(flrB) two-component sensor kinase	Polar flagella	Motility	Aeromonas hydrophila ML09-119	Aeromonas	Aeromonas hydrophila	flrB	VFC0204	VF0473	vfdb_aeromonas_setA
VFG038764(gb|WP_017409846)	VFG038764	WP_017409846	(flrA) FleQ protein [Polar flagella (VF0473) - Motility (VFC0204)] [Aeromonas hydrophila ML09-119]	(flrA) FleQ protein	Polar flagella	Motility	Aeromonas hydrophila ML09-119	Aeromonas	Aeromonas hydrophila	flrA	VFC0204	VF0473	vfdb_aeromonas_setA
VFG038768(gb|WP_016351318)	VFG038768	WP_016351318	(flgL) flagellar hook-associated protein FlgL [Polar flagella (VF0473) - Motility (VFC0204)] [Aeromonas hydrophila ML09-119]	(flgL) flagellar hook-associated protein FlgL	Polar flagella	Motility	Aeromonas hydrophila ML09-119	Aeromonas	Aeromonas hydrophila	flgL	VFC0204	VF0473	vfdb_aeromonas_setA
VFG038772(gb|WP_016351319)	VFG038772	WP_016351319	(flgK) flagellar hook-associated protein FlgK [Polar flagella (VF0473) - Motility (VFC0204)] [Aeromonas hydrophila ML09-119]	(flgK) flagellar hook-associated protein FlgK	Polar flagella	Motility	Aeromonas hydrophila ML09-119	Aeromonas	Aeromonas hydrophila	flgK	VFC0204	VF0473	vfdb_aeromonas_setA
VFG038776(gb|WP_016351320)	VFG038776	WP_016351320	(flgJ) flagellar rod assembly protein/muramidase FlgJ [Polar flagella (VF0473) - Motility (VFC0204)] [Aeromonas hydrophila ML09-119]	(flgJ) flagellar rod assembly protein/muramidase FlgJ	Polar flagella	Motility	Aeromonas hydrophila ML09-119	Aeromonas	Aeromonas hydrophila	flgJ	VFC0204	VF0473	vfdb_aeromonas_setA
VFG038780(gb|WP_011706637)	VFG038780	WP_011706637	(flgI) flagellar basal body P-ring protein [Polar flagella (VF0473) - Motility (VFC0204)] [Aeromonas hydrophila ML09-119]	(flgI) flagellar basal body P-ring protein	Polar flagella	Motility	Aeromonas hydrophila ML09-119	Aeromonas	Aeromonas hydrophila	flgI	VFC0204	VF0473	vfdb_aeromonas_setA
VFG038784(gb|WP_011706638)	VFG038784	WP_011706638	(flgH) flagellar basal body L-ring protein [Polar flagella (VF0473) - Motility (VFC0204)] [Aeromonas hydrophila ML09-119]	(flgH) flagellar basal body L-ring protein	Polar flagella	Motility	Aeromonas hydrophila ML09-119	Aeromonas	Aeromonas hydrophila	flgH	VFC0204	VF0473	vfdb_aeromonas_setA
VFG038788(gb|WP_011706639)	VFG038788	WP_011706639	(flgG) flagellar basal body rod protein FlgG [Polar flagella (VF0473) - Motility (VFC0204)] [Aeromonas hydrophila ML09-119]	(flgG) flagellar basal body rod protein FlgG	Polar flagella	Motility	Aeromonas hydrophila ML09-119	Aeromonas	Aeromonas hydrophila	flgG	VFC0204	VF0473	vfdb_aeromonas_setA
VFG038792(gb|WP_011706640)	VFG038792	WP_011706640	(flgF) flagellar basal-body rod protein FlgF [Polar flagella (VF0473) - Motility (VFC0204)] [Aeromonas hydrophila ML09-119]	(flgF) flagellar basal-body rod protein FlgF	Polar flagella	Motility	Aeromonas hydrophila ML09-119	Aeromonas	Aeromonas hydrophila	flgF	VFC0204	VF0473	vfdb_aeromonas_setA
VFG038796(gb|WP_016351321)	VFG038796	WP_016351321	(flgE) flagellar hook protein FlgE [Polar flagella (VF0473) - Motility (VFC0204)] [Aeromonas hydrophila ML09-119]	(flgE) flagellar hook protein FlgE	Polar flagella	Motility	Aeromonas hydrophila ML09-119	Aeromonas	Aeromonas hydrophila	flgE	VFC0204	VF0473	vfdb_aeromonas_setA
VFG038800(gb|WP_016351322)	VFG038800	WP_016351322	(flgD) flagellar hook capping protein [Polar flagella (VF0473) - Motility (VFC0204)] [Aeromonas hydrophila ML09-119]	(flgD) flagellar hook capping protein	Polar flagella	Motility	Aeromonas hydrophila ML09-119	Aeromonas	Aeromonas hydrophila	flgD	VFC0204	VF0473	vfdb_aeromonas_setA
VFG038804(gb|WP_011706643)	VFG038804	WP_011706643	(flgC) flagellar basal body rod protein FlgC [Polar flagella (VF0473) - Motility (VFC0204)] [Aeromonas hydrophila ML09-119]	(flgC) flagellar basal body rod protein FlgC	Polar flagella	Motility	Aeromonas hydrophila ML09-119	Aeromonas	Aeromonas hydrophila	flgC	VFC0204	VF0473	vfdb_aeromonas_setA
VFG038808(gb|WP_011706644)	VFG038808	WP_011706644	(flgB) flagellar basal-body rod protein FlgB [Polar flagella (VF0473) - Motility (VFC0204)] [Aeromonas hydrophila ML09-119]	(flgB) flagellar basal-body rod protein FlgB	Polar flagella	Motility	Aeromonas hydrophila ML09-119	Aeromonas	Aeromonas hydrophila	flgB	VFC0204	VF0473	vfdb_aeromonas_setA
VFG038812(gb|WP_011706645)	VFG038812	WP_011706645	(cheR-3) chemotaxis protein CheR [Polar flagella (VF0473) - Motility (VFC0204)] [Aeromonas hydrophila ML09-119]	(cheR-3) chemotaxis protein CheR	Polar flagella	Motility	Aeromonas hydrophila ML09-119	Aeromonas	Aeromonas hydrophila	cheR	VFC0204	VF0473	vfdb_aeromonas_setA
VFG038816(gb|WP_011706646)	VFG038816	WP_011706646	(cheV) CheV [Polar flagella (VF0473) - Motility (VFC0204)] [Aeromonas hydrophila ML09-119]	(cheV) CheV	Polar flagella	Motility	Aeromonas hydrophila ML09-119	Aeromonas	Aeromonas hydrophila	cheV	VFC0204	VF0473	vfdb_aeromonas_setA
VFG038820(gb|WP_161785096)	VFG038820	WP_161785096	(flgA) flagella basal body P-ring formation protein FlgA [Polar flagella (VF0473) - Motility (VFC0204)] [Aeromonas hydrophila ML09-119]	(flgA) flagella basal body P-ring formation protein FlgA	Polar flagella	Motility	Aeromonas hydrophila ML09-119	Aeromonas	Aeromonas hydrophila	flgA	VFC0204	VF0473	vfdb_aeromonas_setA
VFG038824(gb|WP_011706648)	VFG038824	WP_011706648	(flgM) anti-sigma-D factor [Polar flagella (VF0473) - Motility (VFC0204)] [Aeromonas hydrophila ML09-119]	(flgM) anti-sigma-D factor	Polar flagella	Motility	Aeromonas hydrophila ML09-119	Aeromonas	Aeromonas hydrophila	flgM	VFC0204	VF0473	vfdb_aeromonas_setA
VFG038828(gb|WP_011706649)	VFG038828	WP_011706649	(flgN) flagellar protein FlgN [Polar flagella (VF0473) - Motility (VFC0204)] [Aeromonas hydrophila ML09-119]	(flgN) flagellar protein FlgN	Polar flagella	Motility	Aeromonas hydrophila ML09-119	Aeromonas	Aeromonas hydrophila	flgN	VFC0204	VF0473	vfdb_aeromonas_setA
VFG038832(gb|WP_016351724)	VFG038832	WP_016351724	(pomB2) flagellar motor protein MotB [Polar flagella (VF0473) - Motility (VFC0204)] [Aeromonas hydrophila ML09-119]	(pomB2) flagellar motor protein MotB	Polar flagella	Motility	Aeromonas hydrophila ML09-119	Aeromonas	Aeromonas hydrophila	pomB2	VFC0204	VF0473	vfdb_aeromonas_setA
VFG038836(gb|WP_011707085)	VFG038836	WP_011707085	(pomA2) chemotaxis protein PomA [Polar flagella (VF0473) - Motility (VFC0204)] [Aeromonas hydrophila ML09-119]	(pomA2) chemotaxis protein PomA	Polar flagella	Motility	Aeromonas hydrophila ML09-119	Aeromonas	Aeromonas hydrophila	pomA2	VFC0204	VF0473	vfdb_aeromonas_setA
VFG038840(gb|WP_005300916)	VFG038840	WP_005300916	(flmH) short chain dehydrogenase/reductase family oxidoreductase [Polar flagella (VF0473) - Motility (VFC0204)] [Aeromonas hydrophila ML09-119]	(flmH) short chain dehydrogenase/reductase family oxidoreductase	Polar flagella	Motility	Aeromonas hydrophila ML09-119	Aeromonas	Aeromonas hydrophila	flmH	VFC0204	VF0473	vfdb_aeromonas_setA
VFG038845(gb|WP_016351249)	VFG038845	WP_016351249	(nueA) NeuA protein [Polar flagella (VF0473) - Motility (VFC0204)] [Aeromonas hydrophila ML09-119]	(nueA) NeuA protein	Polar flagella	Motility	Aeromonas hydrophila ML09-119	Aeromonas	Aeromonas hydrophila	nueA	VFC0204	VF0473	vfdb_aeromonas_setA
VFG038848(gb|WP_016350360)	VFG038848	WP_016350360	(flmD) FlmD protein [Polar flagella (VF0473) - Motility (VFC0204)] [Aeromonas hydrophila ML09-119]	(flmD) FlmD protein	Polar flagella	Motility	Aeromonas hydrophila ML09-119	Aeromonas	Aeromonas hydrophila	flmD	VFC0204	VF0473	vfdb_aeromonas_setA
VFG038851(gb|WP_016350359)	VFG038851	WP_016350359	(nueB) pseudaminic acid synthase, NeuB [Polar flagella (VF0473) - Motility (VFC0204)] [Aeromonas hydrophila ML09-119]	(nueB) pseudaminic acid synthase, NeuB	Polar flagella	Motility	Aeromonas hydrophila ML09-119	Aeromonas	Aeromonas hydrophila	nueB	VFC0204	VF0473	vfdb_aeromonas_setA
VFG038855(gb|WP_005314317)	VFG038855	WP_005314317	(lfiM) lateral flagellar motor switch protein, LfiM [Lateral flagella (VF0474) - Motility (VFC0204)] [Aeromonas salmonicida subsp. salmonicida A449]	(lfiM) lateral flagellar motor switch protein, LfiM	Lateral flagella	Motility	Aeromonas salmonicida subsp. salmonicida A449	Aeromonas	Aeromonas salmonicida	lfiM	VFC0204	VF0474	vfdb_aeromonas_setA
VFG038856(gb|WP_005314315)	VFG038856	WP_005314315	(lfiN) lateral flagellar motor switch protein, lfiN [Lateral flagella (VF0474) - Motility (VFC0204)] [Aeromonas salmonicida subsp. salmonicida A449]	(lfiN) lateral flagellar motor switch protein, lfiN	Lateral flagella	Motility	Aeromonas salmonicida subsp. salmonicida A449	Aeromonas	Aeromonas salmonicida	lfiN	VFC0204	VF0474	vfdb_aeromonas_setA
VFG038857(gb|WP_005314307)	VFG038857	WP_005314307	(fliP) flagellar biosynthesis protein FliP [Lateral flagella (VF0474) - Motility (VFC0204)] [Aeromonas salmonicida subsp. salmonicida A449]	(fliP) flagellar biosynthesis protein FliP	Lateral flagella	Motility	Aeromonas salmonicida subsp. salmonicida A449	Aeromonas	Aeromonas salmonicida	fliP	VFC0204	VF0474	vfdb_aeromonas_setA
VFG038858(gb|WP_005314303)	VFG038858	WP_005314303	(lfiQ) lateral flagellar biosynthetic protein, LfiQ [Lateral flagella (VF0474) - Motility (VFC0204)] [Aeromonas salmonicida subsp. salmonicida A449]	(lfiQ) lateral flagellar biosynthetic protein, LfiQ	Lateral flagella	Motility	Aeromonas salmonicida subsp. salmonicida A449	Aeromonas	Aeromonas salmonicida	lfiQ	VFC0204	VF0474	vfdb_aeromonas_setA
VFG038859(gb|WP_005314301)	VFG038859	WP_005314301	(lfiR) lateral flagellar biosynthetic protein LfiR [Lateral flagella (VF0474) - Motility (VFC0204)] [Aeromonas salmonicida subsp. salmonicida A449]	(lfiR) lateral flagellar biosynthetic protein LfiR	Lateral flagella	Motility	Aeromonas salmonicida subsp. salmonicida A449	Aeromonas	Aeromonas salmonicida	lfiR	VFC0204	VF0474	vfdb_aeromonas_setA
VFG038860(gb|WP_005314298)	VFG038860	WP_005314298	(lfhB) lateral flagellar biosynthetic protein, LfhB [Lateral flagella (VF0474) - Motility (VFC0204)] [Aeromonas salmonicida subsp. salmonicida A449]	(lfhB) lateral flagellar biosynthetic protein, LfhB	Lateral flagella	Motility	Aeromonas salmonicida subsp. salmonicida A449	Aeromonas	Aeromonas salmonicida	lfhB	VFC0204	VF0474	vfdb_aeromonas_setA
VFG038861(gb|WP_005314296)	VFG038861	WP_005314296	(lfhA) lateral flagellar biosynthesis protein [Lateral flagella (VF0474) - Motility (VFC0204)] [Aeromonas salmonicida subsp. salmonicida A449]	(lfhA) lateral flagellar biosynthesis protein	Lateral flagella	Motility	Aeromonas salmonicida subsp. salmonicida A449	Aeromonas	Aeromonas salmonicida	lfhA	VFC0204	VF0474	vfdb_aeromonas_setA
VFG038862(gb|WP_011898282)	VFG038862	WP_011898282	(lafK) two-component system lateral flagellar response regulator [Lateral flagella (VF0474) - Motility (VFC0204)] [Aeromonas salmonicida subsp. salmonicida A449]	(lafK) two-component system lateral flagellar response regulator	Lateral flagella	Motility	Aeromonas salmonicida subsp. salmonicida A449	Aeromonas	Aeromonas salmonicida	lafK	VFC0204	VF0474	vfdb_aeromonas_setA
VFG038863(gb|WP_005314292)	VFG038863	WP_005314292	(lfiE) lateral flagellar hook basal body protein, LfiE [Lateral flagella (VF0474) - Motility (VFC0204)] [Aeromonas salmonicida subsp. salmonicida A449]	(lfiE) lateral flagellar hook basal body protein, LfiE	Lateral flagella	Motility	Aeromonas salmonicida subsp. salmonicida A449	Aeromonas	Aeromonas salmonicida	lfiE	VFC0204	VF0474	vfdb_aeromonas_setA
VFG038864(gb|WP_073531776)	VFG038864	WP_073531776	(fliF) flagellar MS-ring protein [Lateral flagella (VF0474) - Motility (VFC0204)] [Aeromonas salmonicida subsp. salmonicida A449]	(fliF) flagellar MS-ring protein	Lateral flagella	Motility	Aeromonas salmonicida subsp. salmonicida A449	Aeromonas	Aeromonas salmonicida	fliF	VFC0204	VF0474	vfdb_aeromonas_setA
VFG038865(gb|WP_005314289)	VFG038865	WP_005314289	(fliG) flagellar motor switch protein G [Lateral flagella (VF0474) - Motility (VFC0204)] [Aeromonas salmonicida subsp. salmonicida A449]	(fliG) flagellar motor switch protein G	Lateral flagella	Motility	Aeromonas salmonicida subsp. salmonicida A449	Aeromonas	Aeromonas salmonicida	fliG	VFC0204	VF0474	vfdb_aeromonas_setA
VFG038866(gb|WP_005314286)	VFG038866	WP_005314286	(lfiH) lateral flagellar assembly protein FliH [Lateral flagella (VF0474) - Motility (VFC0204)] [Aeromonas salmonicida subsp. salmonicida A449]	(lfiH) lateral flagellar assembly protein FliH	Lateral flagella	Motility	Aeromonas salmonicida subsp. salmonicida A449	Aeromonas	Aeromonas salmonicida	lfiH	VFC0204	VF0474	vfdb_aeromonas_setA
VFG038867(gb|WP_005314284)	VFG038867	WP_005314284	(lfiI) lateral flagellar FliI-like assembly ATPase [Lateral flagella (VF0474) - Motility (VFC0204)] [Aeromonas salmonicida subsp. salmonicida A449]	(lfiI) lateral flagellar FliI-like assembly ATPase	Lateral flagella	Motility	Aeromonas salmonicida subsp. salmonicida A449	Aeromonas	Aeromonas salmonicida	lfiI	VFC0204	VF0474	vfdb_aeromonas_setA
VFG038868(gb|WP_005314282)	VFG038868	WP_005314282	(lfiJ) lateral flagellar protein, LfiJ [Lateral flagella (VF0474) - Motility (VFC0204)] [Aeromonas salmonicida subsp. salmonicida A449]	(lfiJ) lateral flagellar protein, LfiJ	Lateral flagella	Motility	Aeromonas salmonicida subsp. salmonicida A449	Aeromonas	Aeromonas salmonicida	lfiJ	VFC0204	VF0474	vfdb_aeromonas_setA
VFG038869(gb|WP_005314279)	VFG038869	WP_005314279	(lfgN) lateral flagellar protein, LfgN [Lateral flagella (VF0474) - Motility (VFC0204)] [Aeromonas salmonicida subsp. salmonicida A449]	(lfgN) lateral flagellar protein, LfgN	Lateral flagella	Motility	Aeromonas salmonicida subsp. salmonicida A449	Aeromonas	Aeromonas salmonicida	lfgN	VFC0204	VF0474	vfdb_aeromonas_setA
VFG038870(gb|WP_005314277)	VFG038870	WP_005314277	(lfgM) lateral flagella anti-sigma-28 factor, LfgM [Lateral flagella (VF0474) - Motility (VFC0204)] [Aeromonas salmonicida subsp. salmonicida A449]	(lfgM) lateral flagella anti-sigma-28 factor, LfgM	Lateral flagella	Motility	Aeromonas salmonicida subsp. salmonicida A449	Aeromonas	Aeromonas salmonicida	lfgM	VFC0204	VF0474	vfdb_aeromonas_setA
VFG038871(gb|WP_005314274)	VFG038871	WP_005314274	(lfgA) lateral flagellar basal body P-ring biosynthesis protein, LfgA [Lateral flagella (VF0474) - Motility (VFC0204)] [Aeromonas salmonicida subsp. salmonicida A449]	(lfgA) lateral flagellar basal body P-ring biosynthesis protein, LfgA	Lateral flagella	Motility	Aeromonas salmonicida subsp. salmonicida A449	Aeromonas	Aeromonas salmonicida	lfgA	VFC0204	VF0474	vfdb_aeromonas_setA
VFG038872(gb|WP_005314272)	VFG038872	WP_005314272	(lfgB) lateral flagellar basal body protein, LfgB [Lateral flagella (VF0474) - Motility (VFC0204)] [Aeromonas salmonicida subsp. salmonicida A449]	(lfgB) lateral flagellar basal body protein, LfgB	Lateral flagella	Motility	Aeromonas salmonicida subsp. salmonicida A449	Aeromonas	Aeromonas salmonicida	lfgB	VFC0204	VF0474	vfdb_aeromonas_setA
VFG038873(gb|WP_005314270)	VFG038873	WP_005314270	(flgC) flagellar basal body rod protein FlgC [Lateral flagella (VF0474) - Motility (VFC0204)] [Aeromonas salmonicida subsp. salmonicida A449]	(flgC) flagellar basal body rod protein FlgC	Lateral flagella	Motility	Aeromonas salmonicida subsp. salmonicida A449	Aeromonas	Aeromonas salmonicida	flgC	VFC0204	VF0474	vfdb_aeromonas_setA
VFG038874(gb|WP_005314263)	VFG038874	WP_005314263	(flgE) flagellar hook protein FlgE [Lateral flagella (VF0474) - Motility (VFC0204)] [Aeromonas salmonicida subsp. salmonicida A449]	(flgE) flagellar hook protein FlgE	Lateral flagella	Motility	Aeromonas salmonicida subsp. salmonicida A449	Aeromonas	Aeromonas salmonicida	flgE	VFC0204	VF0474	vfdb_aeromonas_setA
VFG038875(gb|WP_005314261)	VFG038875	WP_005314261	(lfgF) lateral flagellar basal-body rod protein LfgF [Lateral flagella (VF0474) - Motility (VFC0204)] [Aeromonas salmonicida subsp. salmonicida A449]	(lfgF) lateral flagellar basal-body rod protein LfgF	Lateral flagella	Motility	Aeromonas salmonicida subsp. salmonicida A449	Aeromonas	Aeromonas salmonicida	lfgF	VFC0204	VF0474	vfdb_aeromonas_setA
VFG038876(gb|WP_005314259)	VFG038876	WP_005314259	(lfgG) lateral flagellar basal-body rod protein LfgG [Lateral flagella (VF0474) - Motility (VFC0204)] [Aeromonas salmonicida subsp. salmonicida A449]	(lfgG) lateral flagellar basal-body rod protein LfgG	Lateral flagella	Motility	Aeromonas salmonicida subsp. salmonicida A449	Aeromonas	Aeromonas salmonicida	lfgG	VFC0204	VF0474	vfdb_aeromonas_setA
VFG038877(gb|WP_005314257)	VFG038877	WP_005314257	(lfgH) lateral flagellar L-ring protein, LfgH [Lateral flagella (VF0474) - Motility (VFC0204)] [Aeromonas salmonicida subsp. salmonicida A449]	(lfgH) lateral flagellar L-ring protein, LfgH	Lateral flagella	Motility	Aeromonas salmonicida subsp. salmonicida A449	Aeromonas	Aeromonas salmonicida	lfgH	VFC0204	VF0474	vfdb_aeromonas_setA
VFG038878(gb|WP_005314254)	VFG038878	WP_005314254	(flgI) flagellar basal body P-ring protein [Lateral flagella (VF0474) - Motility (VFC0204)] [Aeromonas salmonicida subsp. salmonicida A449]	(flgI) flagellar basal body P-ring protein	Lateral flagella	Motility	Aeromonas salmonicida subsp. salmonicida A449	Aeromonas	Aeromonas salmonicida	flgI	VFC0204	VF0474	vfdb_aeromonas_setA
VFG038879(gb|WP_005314251)	VFG038879	WP_005314251	(flgJ) peptidoglycan hydrolase [Lateral flagella (VF0474) - Motility (VFC0204)] [Aeromonas salmonicida subsp. salmonicida A449]	(flgJ) peptidoglycan hydrolase	Lateral flagella	Motility	Aeromonas salmonicida subsp. salmonicida A449	Aeromonas	Aeromonas salmonicida	flgJ	VFC0204	VF0474	vfdb_aeromonas_setA
VFG038880(gb|WP_005314250)	VFG038880	WP_005314250	(lfgK) lateral flagellar hook-associated protein [Lateral flagella (VF0474) - Motility (VFC0204)] [Aeromonas salmonicida subsp. salmonicida A449]	(lfgK) lateral flagellar hook-associated protein	Lateral flagella	Motility	Aeromonas salmonicida subsp. salmonicida A449	Aeromonas	Aeromonas salmonicida	lfgK	VFC0204	VF0474	vfdb_aeromonas_setA
VFG038881(gb|WP_005314249)	VFG038881	WP_005314249	(lfgL) lateral flagellar hook-associated protein, LfgL [Lateral flagella (VF0474) - Motility (VFC0204)] [Aeromonas salmonicida subsp. salmonicida A449]	(lfgL) lateral flagellar hook-associated protein, LfgL	Lateral flagella	Motility	Aeromonas salmonicida subsp. salmonicida A449	Aeromonas	Aeromonas salmonicida	lfgL	VFC0204	VF0474	vfdb_aeromonas_setA
VFG038882(gb|WP_005314247)	VFG038882	WP_005314247	(maf-5) modification accessory factor [Lateral flagella (VF0474) - Motility (VFC0204)] [Aeromonas salmonicida subsp. salmonicida A449]	(maf-5) modification accessory factor	Lateral flagella	Motility	Aeromonas salmonicida subsp. salmonicida A449	Aeromonas	Aeromonas salmonicida	maf	VFC0204	VF0474	vfdb_aeromonas_setA
VFG038883(gb|WP_005314227)	VFG038883	WP_005314227	(lafB) flagellar hook associated protein LafB [Lateral flagella (VF0474) - Motility (VFC0204)] [Aeromonas salmonicida subsp. salmonicida A449]	(lafB) flagellar hook associated protein LafB	Lateral flagella	Motility	Aeromonas salmonicida subsp. salmonicida A449	Aeromonas	Aeromonas salmonicida	lafB	VFC0204	VF0474	vfdb_aeromonas_setA
VFG038884(gb|WP_005314225)	VFG038884	WP_005314225	(lafC) LafC, flagellar export chaperone [Lateral flagella (VF0474) - Motility (VFC0204)] [Aeromonas salmonicida subsp. salmonicida A449]	(lafC) LafC, flagellar export chaperone	Lateral flagella	Motility	Aeromonas salmonicida subsp. salmonicida A449	Aeromonas	Aeromonas salmonicida	lafC	VFC0204	VF0474	vfdb_aeromonas_setA
VFG038885(gb|WP_005314224)	VFG038885	WP_005314224	(lafX) LafX [Lateral flagella (VF0474) - Motility (VFC0204)] [Aeromonas salmonicida subsp. salmonicida A449]	(lafX) LafX	Lateral flagella	Motility	Aeromonas salmonicida subsp. salmonicida A449	Aeromonas	Aeromonas salmonicida	lafX	VFC0204	VF0474	vfdb_aeromonas_setA
VFG038886(gb|WP_005314222)	VFG038886	WP_005314222	(lafE) LafE, flagellar hook control length protein [Lateral flagella (VF0474) - Motility (VFC0204)] [Aeromonas salmonicida subsp. salmonicida A449]	(lafE) LafE, flagellar hook control length protein	Lateral flagella	Motility	Aeromonas salmonicida subsp. salmonicida A449	Aeromonas	Aeromonas salmonicida	lafE	VFC0204	VF0474	vfdb_aeromonas_setA
VFG038887(gb|WP_005314220)	VFG038887	WP_005314220	(lafF) LafF [Lateral flagella (VF0474) - Motility (VFC0204)] [Aeromonas salmonicida subsp. salmonicida A449]	(lafF) LafF	Lateral flagella	Motility	Aeromonas salmonicida subsp. salmonicida A449	Aeromonas	Aeromonas salmonicida	lafF	VFC0204	VF0474	vfdb_aeromonas_setA
VFG038888(gb|WP_011898286)	VFG038888	WP_011898286	(lafS) LafS, RNA polymerase sigma factor [Lateral flagella (VF0474) - Motility (VFC0204)] [Aeromonas salmonicida subsp. salmonicida A449]	(lafS) LafS, RNA polymerase sigma factor	Lateral flagella	Motility	Aeromonas salmonicida subsp. salmonicida A449	Aeromonas	Aeromonas salmonicida	lafS	VFC0204	VF0474	vfdb_aeromonas_setA
VFG038889(gb|WP_005314215)	VFG038889	WP_005314215	(lafT) LafT, flagella motor stator protein [Lateral flagella (VF0474) - Motility (VFC0204)] [Aeromonas salmonicida subsp. salmonicida A449]	(lafT) LafT, flagella motor stator protein	Lateral flagella	Motility	Aeromonas salmonicida subsp. salmonicida A449	Aeromonas	Aeromonas salmonicida	lafT	VFC0204	VF0474	vfdb_aeromonas_setA
VFG038890(gb|WP_005314213)	VFG038890	WP_005314213	(lafU) LafU, chemotaxis protein [Lateral flagella (VF0474) - Motility (VFC0204)] [Aeromonas salmonicida subsp. salmonicida A449]	(lafU) LafU, chemotaxis protein	Lateral flagella	Motility	Aeromonas salmonicida subsp. salmonicida A449	Aeromonas	Aeromonas salmonicida	lafU	VFC0204	VF0474	vfdb_aeromonas_setA
VFG038892(gb|WP_043118302)	VFG038892	WP_043118302	(aerA/act) Aerolysin A [Aerolysin (VF0481) - Exotoxin (VFC0235)] [Aeromonas hydrophila ML09-119]	(aerA/act) Aerolysin A	Aerolysin	Exotoxin	Aeromonas hydrophila ML09-119	Aeromonas	Aeromonas hydrophila	aerA	VFC0235	VF0481	vfdb_aeromonas_setA
VFG038913	VFG038913	NA	(rtxA) multifunctional autoprocessing repeats-in-toxins (MARTX) toxin [RtxA (VF0482) - Exotoxin (VFC0235)] [Aeromonas hydrophila ML09-119]	(rtxA) multifunctional autoprocessing repeats-in-toxins (MARTX) toxin	RtxA	Exotoxin	Aeromonas hydrophila ML09-119	Aeromonas	Aeromonas hydrophila	rtxA	VFC0235	VF0482	vfdb_aeromonas_setA
