name	VFG	Accession	comment	vf_description	vf_function	vf_category	vf_host	vf_genus	vf_species	vf_gene	VFCID	VFID	database_type
VFG001273(gb|WP_000594519)	VFG001273	WP_000594519	(hlgA) gamma-hemolysin chain II precursor [-hemolysin (VF0011) - Exotoxin (VFC0235)] [Staphylococcus aureus subsp. aureus MW2]	(hlgA) gamma-hemolysin chain II precursor	-hemolysin	Exotoxin	Staphylococcus aureus subsp. aureus MW2	Staphylococcus	Staphylococcus aureus	hlgA	VFC0235	VF0011	vfdb_staphylococcus_setA
VFG001274(gb|WP_000916704)	VFG001274	WP_000916704	(hlgC) gamma-hemolysin component C [-hemolysin (VF0011) - Exotoxin (VFC0235)] [Staphylococcus aureus subsp. aureus MW2]	(hlgC) gamma-hemolysin component C	-hemolysin	Exotoxin	Staphylococcus aureus subsp. aureus MW2	Staphylococcus	Staphylococcus aureus	hlgC	VFC0235	VF0011	vfdb_staphylococcus_setA
VFG001275(gb|WP_000783428)	VFG001275	WP_000783428	(hlgB) gamma-hemolysin component B [-hemolysin (VF0011) - Exotoxin (VFC0235)] [Staphylococcus aureus subsp. aureus MW2]	(hlgB) gamma-hemolysin component B	-hemolysin	Exotoxin	Staphylococcus aureus subsp. aureus MW2	Staphylococcus	Staphylococcus aureus	hlgB	VFC0235	VF0011	vfdb_staphylococcus_setA
VFG001276(gb|WP_024937002)	VFG001276	WP_024937002	(lukF-PV) Panton-Valentine leukocidin chain F precursor [PVL (VF0018) - Exotoxin (VFC0235)] [Staphylococcus aureus subsp. aureus MW2]	(lukF-PV) Panton-Valentine leukocidin chain F precursor	PVL	Exotoxin	Staphylococcus aureus subsp. aureus MW2	Staphylococcus	Staphylococcus aureus	lukF	VFC0235	VF0018	vfdb_staphylococcus_setA
VFG001277(gb|WP_000239545)	VFG001277	WP_000239545	(lukS-PV) Panton-Valentine leukocidin chain S precursor [PVL (VF0018) - Exotoxin (VFC0235)] [Staphylococcus aureus subsp. aureus MW2]	(lukS-PV) Panton-Valentine leukocidin chain S precursor	PVL	Exotoxin	Staphylococcus aureus subsp. aureus MW2	Staphylococcus	Staphylococcus aureus	lukS	VFC0235	VF0018	vfdb_staphylococcus_setA
VFG001278(gb|WP_000069296)	VFG001278	WP_000069296	(ebp) cell surface elastin binding protein [EbpS (VF0008) - Adherence (VFC0001)] [Staphylococcus aureus subsp. aureus MW2]	(ebp) cell surface elastin binding protein	EbpS	Adherence	Staphylococcus aureus subsp. aureus MW2	Staphylococcus	Staphylococcus aureus	ebp	VFC0001	VF0008	vfdb_staphylococcus_setA
VFG001279(gb|WP_001060526)	VFG001279	WP_001060526	(sdrC) Ser-Asp rich fibrinogen-binding bone sialoprotein-binding protein [SDr (VF0019) - Adherence (VFC0001)] [Staphylococcus aureus subsp. aureus MW2]	(sdrC) Ser-Asp rich fibrinogen-binding bone sialoprotein-binding protein	SDr	Adherence	Staphylococcus aureus subsp. aureus MW2	Staphylococcus	Staphylococcus aureus	sdrC	VFC0001	VF0019	vfdb_staphylococcus_setA
VFG001280(gb|WP_000934435)	VFG001280	WP_000934435	(sdrD) Ser-Asp rich fibrinogen-binding bone sialoprotein-binding protein [SDr (VF0019) - Adherence (VFC0001)] [Staphylococcus aureus subsp. aureus MW2]	(sdrD) Ser-Asp rich fibrinogen-binding bone sialoprotein-binding protein	SDr	Adherence	Staphylococcus aureus subsp. aureus MW2	Staphylococcus	Staphylococcus aureus	sdrD	VFC0001	VF0019	vfdb_staphylococcus_setA
VFG001281(gb|WP_000610231)	VFG001281	WP_000610231	(sdrE) Ser-Asp rich fibrinogen-binding bone sialoprotein-binding protein [SDr (VF0019) - Adherence (VFC0001)] [Staphylococcus aureus subsp. aureus MW2]	(sdrE) Ser-Asp rich fibrinogen-binding bone sialoprotein-binding protein	SDr	Adherence	Staphylococcus aureus subsp. aureus MW2	Staphylococcus	Staphylococcus aureus	sdrE	VFC0001	VF0019	vfdb_staphylococcus_setA
VFG001282(gb|WP_000841389)	VFG001282	WP_000841389	(fnbB) fibronectin-binding protein B [FnBPs (VF0010) - Adherence (VFC0001)] [Staphylococcus aureus subsp. aureus MW2]	(fnbB) fibronectin-binding protein B	FnBPs	Adherence	Staphylococcus aureus subsp. aureus MW2	Staphylococcus	Staphylococcus aureus	fnbB	VFC0001	VF0010	vfdb_staphylococcus_setA
VFG001283(gb|WP_000794648)	VFG001283	WP_000794648	(fnbA) fibronectin-binding protein A [FnBPs (VF0010) - Adherence (VFC0001)] [Staphylococcus aureus subsp. aureus MW2]	(fnbA) fibronectin-binding protein A	FnBPs	Adherence	Staphylococcus aureus subsp. aureus MW2	Staphylococcus	Staphylococcus aureus	fnbA	VFC0001	VF0010	vfdb_staphylococcus_setA
VFG001284(gb|WP_000653261)	VFG001284	WP_000653261	(icaR) ica operon transcriptional regulator IcaR [Intercellular adhesion proteins (VF0014) - Biofilm (VFC0271)] [Staphylococcus aureus subsp. aureus MW2]	(icaR) ica operon transcriptional regulator IcaR	Intercellular adhesion proteins	Biofilm	Staphylococcus aureus subsp. aureus MW2	Staphylococcus	Staphylococcus aureus	icaR	VFC0271	VF0014	vfdb_staphylococcus_setA
VFG001285(gb|WP_001159427)	VFG001285	WP_001159427	(icaA) N-acetylglucosaminyltransferase, involved in polysaccharide intercellular adhesin(PIA) synthesis [Intercellular adhesion proteins (VF0014) - Biofilm (VFC0271)] [Staphylococcus aureus subsp. aureus MW2]	(icaA) N-acetylglucosaminyltransferase, involved in polysaccharide intercellular adhesin(PIA) synthesis	Intercellular adhesion proteins	Biofilm	Staphylococcus aureus subsp. aureus MW2	Staphylococcus	Staphylococcus aureus	icaA	VFC0271	VF0014	vfdb_staphylococcus_setA
VFG001286(gb|WP_000240580)	VFG001286	WP_000240580	(icaD) intercellular adhesion protein D, involved in polysaccharide intercellular adhesin(PIA) synthesis [Intercellular adhesion proteins (VF0014) - Biofilm (VFC0271)] [Staphylococcus aureus subsp. aureus MW2]	(icaD) intercellular adhesion protein D, involved in polysaccharide intercellular adhesin(PIA) synthesis	Intercellular adhesion proteins	Biofilm	Staphylococcus aureus subsp. aureus MW2	Staphylococcus	Staphylococcus aureus	icaD	VFC0271	VF0014	vfdb_staphylococcus_setA
VFG001287(gb|WP_000877317)	VFG001287	WP_000877317	(icaB) N-deacetylase, involved in polysaccharide intercellular adhesin(PIA) synthesis [Intercellular adhesion proteins (VF0014) - Biofilm (VFC0271)] [Staphylococcus aureus subsp. aureus MW2]	(icaB) N-deacetylase, involved in polysaccharide intercellular adhesin(PIA) synthesis	Intercellular adhesion proteins	Biofilm	Staphylococcus aureus subsp. aureus MW2	Staphylococcus	Staphylococcus aureus	icaB	VFC0271	VF0014	vfdb_staphylococcus_setA
VFG001288(gb|WP_000723836)	VFG001288	WP_000723836	(icaC) intercellular adhesion protein C, involved in polysaccharide intercellular adhesin(PIA) synthesis [Intercellular adhesion proteins (VF0014) - Biofilm (VFC0271)] [Staphylococcus aureus subsp. aureus MW2]	(icaC) intercellular adhesion protein C, involved in polysaccharide intercellular adhesin(PIA) synthesis	Intercellular adhesion proteins	Biofilm	Staphylococcus aureus subsp. aureus MW2	Staphylococcus	Staphylococcus aureus	icaC	VFC0271	VF0014	vfdb_staphylococcus_setA
VFG001289(gb|WP_001056172)	VFG001289	WP_001056172	(clfA) Clumping factor A, fibrinogen-binding protein [Clumping factor (VF0004) - Adherence (VFC0001)] [Staphylococcus aureus subsp. aureus MW2]	(clfA) Clumping factor A, fibrinogen-binding protein	Clumping factor	Adherence	Staphylococcus aureus subsp. aureus MW2	Staphylococcus	Staphylococcus aureus	clfA	VFC0001	VF0004	vfdb_staphylococcus_setA
VFG001290(gb|WP_000745817)	VFG001290	WP_000745817	(clfB) Clumping factor B, adhesin [Clumping factor (VF0004) - Adherence (VFC0001)] [Staphylococcus aureus subsp. aureus MW2]	(clfB) Clumping factor B, adhesin	Clumping factor	Adherence	Staphylococcus aureus subsp. aureus MW2	Staphylococcus	Staphylococcus aureus	clfB	VFC0001	VF0004	vfdb_staphylococcus_setA
VFG001291(gb|WP_001039417)	VFG001291	WP_001039417	(cna) collagen adhesin precursor [CNA (VF0005) - Adherence (VFC0001)] [Staphylococcus aureus subsp. aureus MW2]	(cna) collagen adhesin precursor	CNA	Adherence	Staphylococcus aureus subsp. aureus MW2	Staphylococcus	Staphylococcus aureus	cna	VFC0001	VF0005	vfdb_staphylococcus_setA
VFG001292(gb|WP_001823225)	VFG001292	WP_001823225	(hld) delta-hemolysin [-hemolysin (VF0007) - Exotoxin (VFC0235)] [Staphylococcus aureus subsp. aureus MW2]	(hld) delta-hemolysin	-hemolysin	Exotoxin	Staphylococcus aureus subsp. aureus MW2	Staphylococcus	Staphylococcus aureus	hld	VFC0235	VF0007	vfdb_staphylococcus_setA
VFG001293(gb|WP_000857485)	VFG001293	WP_000857485	(hly/hla) Alpha-Hemolysin precursor [-hemolysin (VF0001) - Exotoxin (VFC0235)] [Staphylococcus aureus subsp. aureus MW2]	(hly/hla) Alpha-Hemolysin precursor	-hemolysin	Exotoxin	Staphylococcus aureus subsp. aureus MW2	Staphylococcus	Staphylococcus aureus	hly	VFC0235	VF0001	vfdb_staphylococcus_setA
VFG001294(gb|WP_000284457)	VFG001294	WP_000284457	(sspC) Staphostatin B [Staphopain (VF0006) - Exoenzyme (VFC0251)] [Staphylococcus aureus subsp. aureus MW2]	(sspC) Staphostatin B	Staphopain	Exoenzyme	Staphylococcus aureus subsp. aureus MW2	Staphylococcus	Staphylococcus aureus	sspC	VFC0251	VF0006	vfdb_staphylococcus_setA
VFG001295(gb|WP_001089097)	VFG001295	WP_001089097	(sspB) staphopain cysteine proteinase SspB [Staphopain (VF0006) - Exoenzyme (VFC0251)] [Staphylococcus aureus subsp. aureus MW2]	(sspB) staphopain cysteine proteinase SspB	Staphopain	Exoenzyme	Staphylococcus aureus subsp. aureus MW2	Staphylococcus	Staphylococcus aureus	sspB	VFC0251	VF0006	vfdb_staphylococcus_setA
VFG001296(gb|WP_000676533)	VFG001296	WP_000676533	(sspA) serine protease; V8 protease; glutamyl endopeptidase [V8 protease (VF0023) - Exoenzyme (VFC0251)] [Staphylococcus aureus subsp. aureus MW2]	(sspA) serine protease; V8 protease; glutamyl endopeptidase	V8 protease	Exoenzyme	Staphylococcus aureus subsp. aureus MW2	Staphylococcus	Staphylococcus aureus	sspA	VFC0251	VF0023	vfdb_staphylococcus_setA
VFG001297	VFG001297	NA	(capA) capsular polysaccharide type 5/8 biosynthesis protein CapA [Capsule (VF0003) - Immune modulation (VFC0258)] [Staphylococcus aureus subsp. aureus MW2]	(capA) capsular polysaccharide type 5/8 biosynthesis protein CapA	Capsule	Immune modulation	Staphylococcus aureus subsp. aureus MW2	Staphylococcus	Staphylococcus aureus	capA	VFC0258	VF0003	vfdb_staphylococcus_setA
VFG001298(gb|WP_000037328)	VFG001298	WP_000037328	(cap8B) type 8 capsular polysaccharide synthesis protein Cap8B [Capsule (VF0003) - Immune modulation (VFC0258)] [Staphylococcus aureus subsp. aureus MW2]	(cap8B) type 8 capsular polysaccharide synthesis protein Cap8B	Capsule	Immune modulation	Staphylococcus aureus subsp. aureus MW2	Staphylococcus	Staphylococcus aureus	cap8B	VFC0258	VF0003	vfdb_staphylococcus_setA
VFG001299(gb|WP_000565297)	VFG001299	WP_000565297	(cap8C) type 8 capsular polysaccharide synthesis protein Cap8C [Capsule (VF0003) - Immune modulation (VFC0258)] [Staphylococcus aureus subsp. aureus MW2]	(cap8C) type 8 capsular polysaccharide synthesis protein Cap8C	Capsule	Immune modulation	Staphylococcus aureus subsp. aureus MW2	Staphylococcus	Staphylococcus aureus	cap8C	VFC0258	VF0003	vfdb_staphylococcus_setA
VFG001300(gb|WP_000940793)	VFG001300	WP_000940793	(cap8D) type 8 capsular polysaccharide synthesis protein Cap8D [Capsule (VF0003) - Immune modulation (VFC0258)] [Staphylococcus aureus subsp. aureus MW2]	(cap8D) type 8 capsular polysaccharide synthesis protein Cap8D	Capsule	Immune modulation	Staphylococcus aureus subsp. aureus MW2	Staphylococcus	Staphylococcus aureus	cap8D	VFC0258	VF0003	vfdb_staphylococcus_setA
VFG001301(gb|WP_000459062)	VFG001301	WP_000459062	(cap8E) type 8 capsular polysaccharide synthesis protein Cap8E [Capsule (VF0003) - Immune modulation (VFC0258)] [Staphylococcus aureus subsp. aureus MW2]	(cap8E) type 8 capsular polysaccharide synthesis protein Cap8E	Capsule	Immune modulation	Staphylococcus aureus subsp. aureus MW2	Staphylococcus	Staphylococcus aureus	cap8E	VFC0258	VF0003	vfdb_staphylococcus_setA
VFG001302(gb|WP_001028293)	VFG001302	WP_001028293	(cap8F) type 8 capsular polysaccharide synthesis protein Cap8F [Capsule (VF0003) - Immune modulation (VFC0258)] [Staphylococcus aureus subsp. aureus MW2]	(cap8F) type 8 capsular polysaccharide synthesis protein Cap8F	Capsule	Immune modulation	Staphylococcus aureus subsp. aureus MW2	Staphylococcus	Staphylococcus aureus	cap8F	VFC0258	VF0003	vfdb_staphylococcus_setA
VFG001303(gb|WP_000413169)	VFG001303	WP_000413169	(cap8G) type 8 capsular polysaccharide synthesis protein Cap8G [Capsule (VF0003) - Immune modulation (VFC0258)] [Staphylococcus aureus subsp. aureus MW2]	(cap8G) type 8 capsular polysaccharide synthesis protein Cap8G	Capsule	Immune modulation	Staphylococcus aureus subsp. aureus MW2	Staphylococcus	Staphylococcus aureus	cap8G	VFC0258	VF0003	vfdb_staphylococcus_setA
VFG001304(gb|WP_001216935)	VFG001304	WP_001216935	(cap8H) type 8 capsular polysaccharide synthesis protein Cap8H [Capsule (VF0003) - Immune modulation (VFC0258)] [Staphylococcus aureus subsp. aureus MW2]	(cap8H) type 8 capsular polysaccharide synthesis protein Cap8H	Capsule	Immune modulation	Staphylococcus aureus subsp. aureus MW2	Staphylococcus	Staphylococcus aureus	cap8H	VFC0258	VF0003	vfdb_staphylococcus_setA
VFG001305(gb|WP_001034053)	VFG001305	WP_001034053	(cap8I) type 8 capsular polysaccharide synthesis protein Cap8I [Capsule (VF0003) - Immune modulation (VFC0258)] [Staphylococcus aureus subsp. aureus MW2]	(cap8I) type 8 capsular polysaccharide synthesis protein Cap8I	Capsule	Immune modulation	Staphylococcus aureus subsp. aureus MW2	Staphylococcus	Staphylococcus aureus	cap8I	VFC0258	VF0003	vfdb_staphylococcus_setA
VFG001306(gb|WP_000636149)	VFG001306	WP_000636149	(cap8J) type 8 capsular polysaccharide synthesis protein Cap8J [Capsule (VF0003) - Immune modulation (VFC0258)] [Staphylococcus aureus subsp. aureus MW2]	(cap8J) type 8 capsular polysaccharide synthesis protein Cap8J	Capsule	Immune modulation	Staphylococcus aureus subsp. aureus MW2	Staphylococcus	Staphylococcus aureus	cap8J	VFC0258	VF0003	vfdb_staphylococcus_setA
VFG001307(gb|WP_001238807)	VFG001307	WP_001238807	(cap8K) type 8 capsular polysaccharide synthesis protein Cap8K [Capsule (VF0003) - Immune modulation (VFC0258)] [Staphylococcus aureus subsp. aureus MW2]	(cap8K) type 8 capsular polysaccharide synthesis protein Cap8K	Capsule	Immune modulation	Staphylococcus aureus subsp. aureus MW2	Staphylococcus	Staphylococcus aureus	cap8K	VFC0258	VF0003	vfdb_staphylococcus_setA
VFG001308(gb|WP_001291010)	VFG001308	WP_001291010	(cap8L) type 8 capsular polysaccharide synthesis protein Cap8L [Capsule (VF0003) - Immune modulation (VFC0258)] [Staphylococcus aureus subsp. aureus MW2]	(cap8L) type 8 capsular polysaccharide synthesis protein Cap8L	Capsule	Immune modulation	Staphylococcus aureus subsp. aureus MW2	Staphylococcus	Staphylococcus aureus	cap8L	VFC0258	VF0003	vfdb_staphylococcus_setA
VFG001309(gb|WP_000825101)	VFG001309	WP_000825101	(cap8M) type 8 capsular polysaccharide synthesis protein Cap8M [Capsule (VF0003) - Immune modulation (VFC0258)] [Staphylococcus aureus subsp. aureus MW2]	(cap8M) type 8 capsular polysaccharide synthesis protein Cap8M	Capsule	Immune modulation	Staphylococcus aureus subsp. aureus MW2	Staphylococcus	Staphylococcus aureus	cap8M	VFC0258	VF0003	vfdb_staphylococcus_setA
VFG001310(gb|WP_001230668)	VFG001310	WP_001230668	(capN) capsular polysaccharide type 5/8 biosynthesis epimerase CapN [Capsule (VF0003) - Immune modulation (VFC0258)] [Staphylococcus aureus subsp. aureus MW2]	(capN) capsular polysaccharide type 5/8 biosynthesis epimerase CapN	Capsule	Immune modulation	Staphylococcus aureus subsp. aureus MW2	Staphylococcus	Staphylococcus aureus	capN	VFC0258	VF0003	vfdb_staphylococcus_setA
VFG001311(gb|WP_000779494)	VFG001311	WP_000779494	(cap8O) type 8 capsular polysaccharide synthesis protein Cap8O [Capsule (VF0003) - Immune modulation (VFC0258)] [Staphylococcus aureus subsp. aureus MW2]	(cap8O) type 8 capsular polysaccharide synthesis protein Cap8O	Capsule	Immune modulation	Staphylococcus aureus subsp. aureus MW2	Staphylococcus	Staphylococcus aureus	cap8O	VFC0258	VF0003	vfdb_staphylococcus_setA
VFG001312(gb|WP_000723452)	VFG001312	WP_000723452	(cap8P) type 8 capsular polysaccharide synthesis protein Cap8P [Capsule (VF0003) - Immune modulation (VFC0258)] [Staphylococcus aureus subsp. aureus MW2]	(cap8P) type 8 capsular polysaccharide synthesis protein Cap8P	Capsule	Immune modulation	Staphylococcus aureus subsp. aureus MW2	Staphylococcus	Staphylococcus aureus	cap8P	VFC0258	VF0003	vfdb_staphylococcus_setA
VFG001313(gb|WP_000728751)	VFG001313	WP_000728751	(spa) Immunoglobulin G binding protein A precursor [SpA (VF0017) - Exotoxin (VFC0235)] [Staphylococcus aureus subsp. aureus MW2]	(spa) Immunoglobulin G binding protein A precursor	SpA	Exotoxin	Staphylococcus aureus subsp. aureus MW2	Staphylococcus	Staphylococcus aureus	spa	VFC0235	VF0017	vfdb_staphylococcus_setA
VFG001314(gb|WP_001225025)	VFG001314	WP_001225025	(aur) zinc metalloproteinase aureolysin [Aureolysin (VF0024) - Exoenzyme (VFC0251)] [Staphylococcus aureus subsp. aureus MW2]	(aur) zinc metalloproteinase aureolysin	Aureolysin	Exoenzyme	Staphylococcus aureus subsp. aureus MW2	Staphylococcus	Staphylococcus aureus	aur	VFC0251	VF0024	vfdb_staphylococcus_setA
VFG001315(gb|WP_000222233)	VFG001315	WP_000222233	(hysA) hyaluronate lyase precursor [Hyaluronate lyase (VF0013) - Exoenzyme (VFC0251)] [Staphylococcus aureus subsp. aureus MW2]	(hysA) hyaluronate lyase precursor	Hyaluronate lyase	Exoenzyme	Staphylococcus aureus subsp. aureus MW2	Staphylococcus	Staphylococcus aureus	hysA	VFC0251	VF0013	vfdb_staphylococcus_setA
VFG001316(gb|WP_000943814)	VFG001316	WP_000943814	(geh) glycerol ester hydrolase [Lipase (VF0012) - Exoenzyme (VFC0251)] [Staphylococcus aureus subsp. aureus MW2]	(geh) glycerol ester hydrolase	Lipase	Exoenzyme	Staphylococcus aureus subsp. aureus MW2	Staphylococcus	Staphylococcus aureus	geh	VFC0251	VF0012	vfdb_staphylococcus_setA
VFG001317(gb|WP_001041586)	VFG001317	WP_001041586	(isdB) iron-regulated surface determinant protein B, haemoglobin receptor [Isd (VF0015) - Nutritional/Metabolic factor (VFC0272)] [Staphylococcus aureus subsp. aureus str. Newman]	(isdB) iron-regulated surface determinant protein B, haemoglobin receptor	Isd	Nutritional/Metabolic factor	Staphylococcus aureus subsp. aureus str. Newman	Staphylococcus	Staphylococcus aureus	isdB	VFC0272	VF0015	vfdb_staphylococcus_setA
VFG001318(gb|WP_000160859)	VFG001318	WP_000160859	(isdA) iron-regulated surface determinant protein A [Isd (VF0015) - Nutritional/Metabolic factor (VFC0272)] [Staphylococcus aureus subsp. aureus str. Newman]	(isdA) iron-regulated surface determinant protein A	Isd	Nutritional/Metabolic factor	Staphylococcus aureus subsp. aureus str. Newman	Staphylococcus	Staphylococcus aureus	isdA	VFC0272	VF0015	vfdb_staphylococcus_setA
VFG001319(gb|WP_000789821)	VFG001319	WP_000789821	(isdC) iron-regulated surface determinant protein C [Isd (VF0015) - Nutritional/Metabolic factor (VFC0272)] [Staphylococcus aureus subsp. aureus str. Newman]	(isdC) iron-regulated surface determinant protein C	Isd	Nutritional/Metabolic factor	Staphylococcus aureus subsp. aureus str. Newman	Staphylococcus	Staphylococcus aureus	isdC	VFC0272	VF0015	vfdb_staphylococcus_setA
VFG001321(gb|WP_001220199)	VFG001321	WP_001220199	(isdE) iron-regulated surface determinant protein E [Isd (VF0015) - Nutritional/Metabolic factor (VFC0272)] [Staphylococcus aureus subsp. aureus str. Newman]	(isdE) iron-regulated surface determinant protein E	Isd	Nutritional/Metabolic factor	Staphylococcus aureus subsp. aureus str. Newman	Staphylococcus	Staphylococcus aureus	isdE	VFC0272	VF0015	vfdb_staphylococcus_setA
VFG001324(gb|WP_000670950)	VFG001324	WP_000670950	(isdG) iron-regulated surface determinant protein G [Isd (VF0015) - Nutritional/Metabolic factor (VFC0272)] [Staphylococcus aureus subsp. aureus str. Newman]	(isdG) iron-regulated surface determinant protein G	Isd	Nutritional/Metabolic factor	Staphylococcus aureus subsp. aureus str. Newman	Staphylococcus	Staphylococcus aureus	isdG	VFC0272	VF0015	vfdb_staphylococcus_setA
VFG001325(gb|WP_000750412)	VFG001325	WP_000750412	(sea) staphylococcal enterotoxin A precursor [SE (VF0020) - Exotoxin (VFC0235)] [Staphylococcus aureus subsp. aureus MW2]	(sea) staphylococcal enterotoxin A precursor	SE	Exotoxin	Staphylococcus aureus subsp. aureus MW2	Staphylococcus	Staphylococcus aureus	sea	VFC0235	VF0020	vfdb_staphylococcus_setA
VFG001326(gb|WP_001033320)	VFG001326	WP_001033320	(selq) staphylococcal enterotoxin G precursor [SE (VF0020) - Exotoxin (VFC0235)] [Staphylococcus aureus subsp. aureus MW2]	(selq) staphylococcal enterotoxin G precursor	SE	Exotoxin	Staphylococcus aureus subsp. aureus MW2	Staphylococcus	Staphylococcus aureus	selq	VFC0235	VF0020	vfdb_staphylococcus_setA
VFG001327(gb|WP_000733771)	VFG001327	WP_000733771	(selk) staphylococcal enterotoxin K precursor [SE (VF0020) - Exotoxin (VFC0235)] [Staphylococcus aureus subsp. aureus MW2]	(selk) staphylococcal enterotoxin K precursor	SE	Exotoxin	Staphylococcus aureus subsp. aureus MW2	Staphylococcus	Staphylococcus aureus	selk	VFC0235	VF0020	vfdb_staphylococcus_setA
VFG001328(gb|WP_000920039)	VFG001328	WP_000920039	(sak) Staphylokinase precursor [Staphylokinase (VF0021) - Exoenzyme (VFC0251)] [Staphylococcus aureus subsp. aureus MW2]	(sak) Staphylokinase precursor	Staphylokinase	Exoenzyme	Staphylococcus aureus subsp. aureus MW2	Staphylococcus	Staphylococcus aureus	sak	VFC0251	VF0021	vfdb_staphylococcus_setA
VFG001800(gb|AAA17490)	VFG001800	AAA17490	(eta) exfoliative toxin A [Exfoliative toxin (VF0009) - Exoenzyme (VFC0251)] [Staphylococcus aureus ZM]	(eta) exfoliative toxin A	Exfoliative toxin	Exoenzyme	Staphylococcus aureus ZM	Staphylococcus	Staphylococcus aureus	eta	VFC0251	VF0009	vfdb_staphylococcus_setA
VFG001801(gb|AAA26628)	VFG001801	AAA26628	(etb) exfoliative toxin B [Exfoliative toxin (VF0009) - Exoenzyme (VFC0251)] [Staphylococcus aureus]	(etb) exfoliative toxin B	Exfoliative toxin	Exoenzyme	Staphylococcus aureus	Staphylococcus	Staphylococcus aureus	etb	VFC0251	VF0009	vfdb_staphylococcus_setA
VFG001802(gb|AAA88550)	VFG001802	AAA88550	(seb) staphylococcal enterotoxin B [SE (VF0020) - Exotoxin (VFC0235)] [Staphylococcus aureus S6]	(seb) staphylococcal enterotoxin B	SE	Exotoxin	Staphylococcus aureus S6	Staphylococcus	Staphylococcus aureus	seb	VFC0235	VF0020	vfdb_staphylococcus_setA
VFG001803(gb|WP_000608674)	VFG001803	WP_000608674	(seh) staphylococcal enterotoxin H precursor [SE (VF0020) - Exotoxin (VFC0235)] [Staphylococcus aureus subsp. aureus MW2]	(seh) staphylococcal enterotoxin H precursor	SE	Exotoxin	Staphylococcus aureus subsp. aureus MW2	Staphylococcus	Staphylococcus aureus	seh	VFC0235	VF0020	vfdb_staphylococcus_setA
VFG001809(gb|WP_001035599)	VFG001809	WP_001035599	(tsst-1) toxic shock syndrome toxin-1 [TSST-1 (VF0022) - Exotoxin (VFC0235)] [Staphylococcus aureus subsp. aureus N315]	(tsst-1) toxic shock syndrome toxin-1	TSST-1	Exotoxin	Staphylococcus aureus subsp. aureus N315	Staphylococcus	Staphylococcus aureus	tsst	VFC0235	VF0022	vfdb_staphylococcus_setA
VFG002404(gb|WP_000928935)	VFG002404	WP_000928935	(essA) type VII secretion system protein EssA, monotopic membrane protein [Type VII secretion system (VF0403) - Effector delivery system (VFC0086)] [Staphylococcus aureus subsp. aureus MW2]	(essA) type VII secretion system protein EssA, monotopic membrane protein	Type VII secretion system	Effector delivery system	Staphylococcus aureus subsp. aureus MW2	Staphylococcus	Staphylococcus aureus	essA	VFC0086	VF0403	vfdb_staphylococcus_setA
VFG002405(gb|WP_001240826)	VFG002405	WP_001240826	(esxA) type VII secretion system secreted protein EsxA [Type VII secretion system (VF0403) - Effector delivery system (VFC0086)] [Staphylococcus aureus subsp. aureus MW2]	(esxA) type VII secretion system secreted protein EsxA	Type VII secretion system	Effector delivery system	Staphylococcus aureus subsp. aureus MW2	Staphylococcus	Staphylococcus aureus	esxA	VFC0086	VF0403	vfdb_staphylococcus_setA
VFG002406(gb|WP_000728972)	VFG002406	WP_000728972	(esaA) type VII secretion system protein EsaA [Type VII secretion system (VF0403) - Effector delivery system (VFC0086)] [Staphylococcus aureus subsp. aureus MW2]	(esaA) type VII secretion system protein EsaA	Type VII secretion system	Effector delivery system	Staphylococcus aureus subsp. aureus MW2	Staphylococcus	Staphylococcus aureus	esaA	VFC0086	VF0403	vfdb_staphylococcus_setA
VFG002407(gb|WP_001071606)	VFG002407	WP_001071606	(esaB) type VII secretion system protein EsaB [Type VII secretion system (VF0403) - Effector delivery system (VFC0086)] [Staphylococcus aureus subsp. aureus MW2]	(esaB) type VII secretion system protein EsaB	Type VII secretion system	Effector delivery system	Staphylococcus aureus subsp. aureus MW2	Staphylococcus	Staphylococcus aureus	esaB	VFC0086	VF0403	vfdb_staphylococcus_setA
VFG002408(gb|WP_000240338)	VFG002408	WP_000240338	(essB) type VII secretion system protein EssB, monotopic membrane protein [Type VII secretion system (VF0403) - Effector delivery system (VFC0086)] [Staphylococcus aureus subsp. aureus MW2]	(essB) type VII secretion system protein EssB, monotopic membrane protein	Type VII secretion system	Effector delivery system	Staphylococcus aureus subsp. aureus MW2	Staphylococcus	Staphylococcus aureus	essB	VFC0086	VF0403	vfdb_staphylococcus_setA
VFG002409(gb|WP_000549274)	VFG002409	WP_000549274	(essC) type VII secretion system protein EssC, FtsK/SpoIIIE family ATPase [Type VII secretion system (VF0403) - Effector delivery system (VFC0086)] [Staphylococcus aureus subsp. aureus MW2]	(essC) type VII secretion system protein EssC, FtsK/SpoIIIE family ATPase	Type VII secretion system	Effector delivery system	Staphylococcus aureus subsp. aureus MW2	Staphylococcus	Staphylococcus aureus	essC	VFC0086	VF0403	vfdb_staphylococcus_setA
VFG002410(gb|WP_001010291)	VFG002410	WP_001010291	(esxC) type VII secretion system secreted protein EsxC [Type VII secretion system (VF0403) - Effector delivery system (VFC0086)] [Staphylococcus aureus subsp. aureus MW2]	(esxC) type VII secretion system secreted protein EsxC	Type VII secretion system	Effector delivery system	Staphylococcus aureus subsp. aureus MW2	Staphylococcus	Staphylococcus aureus	esxC	VFC0086	VF0403	vfdb_staphylococcus_setA
VFG002411(gb|WP_000509667)	VFG002411	WP_000509667	(esxB) type VII secretion system secreted protein EsxB [Type VII secretion system (VF0403) - Effector delivery system (VFC0086)] [Staphylococcus aureus subsp. aureus MW2]	(esxB) type VII secretion system secreted protein EsxB	Type VII secretion system	Effector delivery system	Staphylococcus aureus subsp. aureus MW2	Staphylococcus	Staphylococcus aureus	esxB	VFC0086	VF0403	vfdb_staphylococcus_setA
VFG002418(gb|WP_000791729)	VFG002418	WP_000791729	(vWbp) secreted von Willebrand factor-binding protein precursor [VWbp (VF0420) - Exoenzyme (VFC0251)] [Staphylococcus aureus subsp. aureus str. Newman]	(vWbp) secreted von Willebrand factor-binding protein precursor	VWbp	Exoenzyme	Staphylococcus aureus subsp. aureus str. Newman	Staphylococcus	Staphylococcus aureus	vWbp	VFC0251	VF0420	vfdb_staphylococcus_setA
VFG002419(gb|WP_000744066)	VFG002419	WP_000744066	(coa) staphylocoagulase precursor [Staphylocoagulase (VF0421) - Exoenzyme (VFC0251)] [Staphylococcus aureus subsp. aureus MW2]	(coa) staphylocoagulase precursor	Staphylocoagulase	Exoenzyme	Staphylococcus aureus subsp. aureus MW2	Staphylococcus	Staphylococcus aureus	coa	VFC0251	VF0421	vfdb_staphylococcus_setA
VFG002420(gb|WP_000645781)	VFG002420	WP_000645781	(adsA) Adenosine synthase A [AdsA (VF0422) - Immune modulation (VFC0258)] [Staphylococcus aureus subsp. aureus MW2]	(adsA) Adenosine synthase A	AdsA	Immune modulation	Staphylococcus aureus subsp. aureus MW2	Staphylococcus	Staphylococcus aureus	adsA	VFC0258	VF0422	vfdb_staphylococcus_setA
VFG002421(gb|WP_000792571)	VFG002421	WP_000792571	(sbi) IgG-binding protein SBI [Sbi (VF0423) - Immune modulation (VFC0258)] [Staphylococcus aureus subsp. aureus MW2]	(sbi) IgG-binding protein SBI	Sbi	Immune modulation	Staphylococcus aureus subsp. aureus MW2	Staphylococcus	Staphylococcus aureus	sbi	VFC0258	VF0423	vfdb_staphylococcus_setA
VFG002422(gb|WP_000727649)	VFG002422	WP_000727649	(chp) chemotaxis-inhibiting protein CHIPS [CHIPS (VF0424) - Immune modulation (VFC0258)] [Staphylococcus aureus subsp. aureus str. Newman]	(chp) chemotaxis-inhibiting protein CHIPS	CHIPS	Immune modulation	Staphylococcus aureus subsp. aureus str. Newman	Staphylococcus	Staphylococcus aureus	chp	VFC0258	VF0424	vfdb_staphylococcus_setA
VFG004566(gb|WP_001793419)	VFG004566	WP_001793419	(eap/map) extracellular adherence protein Eap/Map [Eap/Map (VF0016) - Adherence (VFC0001)] [Staphylococcus aureus subsp. aureus MW2]	(eap/map) extracellular adherence protein Eap/Map	Eap/Map	Adherence	Staphylococcus aureus subsp. aureus MW2	Staphylococcus	Staphylococcus aureus	eap	VFC0001	VF0016	vfdb_staphylococcus_setA
VFG004773(gb|WP_000842036)	VFG004773	WP_000842036	(lip) triacylglycerol lipase precursor [Lipase (VF0012) - Exoenzyme (VFC0251)] [Staphylococcus aureus subsp. aureus MW2]	(lip) triacylglycerol lipase precursor	Lipase	Exoenzyme	Staphylococcus aureus subsp. aureus MW2	Staphylococcus	Staphylococcus aureus	lip	VFC0251	VF0012	vfdb_staphylococcus_setA
VFG004840	VFG004840	NA	(hlb) beta-hemolysin [-hemolysin (VF0002) - Exotoxin (VFC0235)] [Staphylococcus aureus subsp. aureus MW2]	(hlb) beta-hemolysin	-hemolysin	Exotoxin	Staphylococcus aureus subsp. aureus MW2	Staphylococcus	Staphylococcus aureus	hlb	VFC0235	VF0002	vfdb_staphylococcus_setA
VFG004903(gb|WP_000769141)	VFG004903	WP_000769141	(set26) superantigen-like protein SSL11 [SSLs (VF0990) - Exotoxin (VFC0235)] [Staphylococcus aureus subsp. aureus MW2]	(set26) superantigen-like protein SSL11	SSLs	Exotoxin	Staphylococcus aureus subsp. aureus MW2	Staphylococcus	Staphylococcus aureus	set26	VFC0235	VF0990	vfdb_staphylococcus_setA
VFG004906(gb|WP_000778477)	VFG004906	WP_000778477	(set25) superantigen-like protein SSL10 [SSLs (VF0990) - Exotoxin (VFC0235)] [Staphylococcus aureus subsp. aureus MW2]	(set25) superantigen-like protein SSL10	SSLs	Exotoxin	Staphylococcus aureus subsp. aureus MW2	Staphylococcus	Staphylococcus aureus	set25	VFC0235	VF0990	vfdb_staphylococcus_setA
VFG004909(gb|WP_000673059)	VFG004909	WP_000673059	(set24) superantigen-like protein SSL9 [SSLs (VF0990) - Exotoxin (VFC0235)] [Staphylococcus aureus subsp. aureus MW2]	(set24) superantigen-like protein SSL9	SSLs	Exotoxin	Staphylococcus aureus subsp. aureus MW2	Staphylococcus	Staphylococcus aureus	set24	VFC0235	VF0990	vfdb_staphylococcus_setA
VFG004912(gb|WP_000673035)	VFG004912	WP_000673035	(set23) superantigen-like protein SSL8 [SSLs (VF0990) - Exotoxin (VFC0235)] [Staphylococcus aureus subsp. aureus MW2]	(set23) superantigen-like protein SSL8	SSLs	Exotoxin	Staphylococcus aureus subsp. aureus MW2	Staphylococcus	Staphylococcus aureus	set23	VFC0235	VF0990	vfdb_staphylococcus_setA
VFG004915(gb|WP_000769837)	VFG004915	WP_000769837	(set22) superantigen-like protein SSL7 [SSLs (VF0990) - Exotoxin (VFC0235)] [Staphylococcus aureus subsp. aureus MW2]	(set22) superantigen-like protein SSL7	SSLs	Exotoxin	Staphylococcus aureus subsp. aureus MW2	Staphylococcus	Staphylococcus aureus	set22	VFC0235	VF0990	vfdb_staphylococcus_setA
VFG004917(gb|WP_000767929)	VFG004917	WP_000767929	(set21) superantigen-like protein SSL6 [SSLs (VF0990) - Exotoxin (VFC0235)] [Staphylococcus aureus subsp. aureus MW2]	(set21) superantigen-like protein SSL6	SSLs	Exotoxin	Staphylococcus aureus subsp. aureus MW2	Staphylococcus	Staphylococcus aureus	set21	VFC0235	VF0990	vfdb_staphylococcus_setA
VFG004920(gb|WP_000781345)	VFG004920	WP_000781345	(set20) superantigen-like protein SSL5 [SSLs (VF0990) - Exotoxin (VFC0235)] [Staphylococcus aureus subsp. aureus MW2]	(set20) superantigen-like protein SSL5	SSLs	Exotoxin	Staphylococcus aureus subsp. aureus MW2	Staphylococcus	Staphylococcus aureus	set20	VFC0235	VF0990	vfdb_staphylococcus_setA
VFG004922(gb|WP_000705630)	VFG004922	WP_000705630	(set19) superantigen-like protein SSL4 [SSLs (VF0990) - Exotoxin (VFC0235)] [Staphylococcus aureus subsp. aureus MW2]	(set19) superantigen-like protein SSL4	SSLs	Exotoxin	Staphylococcus aureus subsp. aureus MW2	Staphylococcus	Staphylococcus aureus	set19	VFC0235	VF0990	vfdb_staphylococcus_setA
VFG004925(gb|WP_000784029)	VFG004925	WP_000784029	(set18) superantigen-like protein SSL3 [SSLs (VF0990) - Exotoxin (VFC0235)] [Staphylococcus aureus subsp. aureus MW2]	(set18) superantigen-like protein SSL3	SSLs	Exotoxin	Staphylococcus aureus subsp. aureus MW2	Staphylococcus	Staphylococcus aureus	set18	VFC0235	VF0990	vfdb_staphylococcus_setA
VFG004928(gb|WP_000782839)	VFG004928	WP_000782839	(set17) superantigen-like protein SSL2 [SSLs (VF0990) - Exotoxin (VFC0235)] [Staphylococcus aureus subsp. aureus MW2]	(set17) superantigen-like protein SSL2	SSLs	Exotoxin	Staphylococcus aureus subsp. aureus MW2	Staphylococcus	Staphylococcus aureus	set17	VFC0235	VF0990	vfdb_staphylococcus_setA
VFG004931(gb|WP_000669009)	VFG004931	WP_000669009	(set16) superantigen-like protein SSL1 [SSLs (VF0990) - Exotoxin (VFC0235)] [Staphylococcus aureus subsp. aureus MW2]	(set16) superantigen-like protein SSL1	SSLs	Exotoxin	Staphylococcus aureus subsp. aureus MW2	Staphylococcus	Staphylococcus aureus	set16	VFC0235	VF0990	vfdb_staphylococcus_setA
VFG004991(gb|WP_000746597)	VFG004991	WP_000746597	(sell) staphylococcal enterotoxin L precursor [SE (VF0020) - Exotoxin (VFC0235)] [Staphylococcus aureus subsp. aureus MW2]	(sell) staphylococcal enterotoxin L precursor	SE	Exotoxin	Staphylococcus aureus subsp. aureus MW2	Staphylococcus	Staphylococcus aureus	sell	VFC0235	VF0020	vfdb_staphylococcus_setA
VFG005009(gb|WP_001043551)	VFG005009	WP_001043551	(sec) staphylococcal enterotoxin C precursor [SE (VF0020) - Exotoxin (VFC0235)] [Staphylococcus aureus subsp. aureus MW2]	(sec) staphylococcal enterotoxin C precursor	SE	Exotoxin	Staphylococcus aureus subsp. aureus MW2	Staphylococcus	Staphylococcus aureus	sec	VFC0235	VF0020	vfdb_staphylococcus_setA
VFG044266(gb|WP_001246698)	VFG044266	WP_001246698	(isdD) iron-regulated surface determinant protein D [Isd (VF0015) - Nutritional/Metabolic factor (VFC0272)] [Staphylococcus aureus subsp. aureus str. Newman]	(isdD) iron-regulated surface determinant protein D	Isd	Nutritional/Metabolic factor	Staphylococcus aureus subsp. aureus str. Newman	Staphylococcus	Staphylococcus aureus	isdD	VFC0272	VF0015	vfdb_staphylococcus_setA
VFG044268(gb|WP_000594530)	VFG044268	WP_000594530	(isdF) iron-regulated surface determinant protein F, ATP-binding-cassette-type transmembrane transporter [Isd (VF0015) - Nutritional/Metabolic factor (VFC0272)] [Staphylococcus aureus subsp. aureus str. Newman]	(isdF) iron-regulated surface determinant protein F, ATP-binding-cassette-type transmembrane transporter	Isd	Nutritional/Metabolic factor	Staphylococcus aureus subsp. aureus str. Newman	Staphylococcus	Staphylococcus aureus	isdF	VFC0272	VF0015	vfdb_staphylococcus_setA
VFG044269(gb|WP_001242429)	VFG044269	WP_001242429	(srtB) NPQTN specific sortase B [Isd (VF0015) - Nutritional/Metabolic factor (VFC0272)] [Staphylococcus aureus subsp. aureus str. Newman]	(srtB) NPQTN specific sortase B	Isd	Nutritional/Metabolic factor	Staphylococcus aureus subsp. aureus str. Newman	Staphylococcus	Staphylococcus aureus	srtB	VFC0272	VF0015	vfdb_staphylococcus_setA
VFG044442(gb|WP_000480603)	VFG044442	WP_000480603	(isdI) staphylobilin-forming heme oxygenase IsdI [Isd (VF0015) - Nutritional/Metabolic factor (VFC0272)] [Staphylococcus aureus subsp. aureus str. Newman]	(isdI) staphylobilin-forming heme oxygenase IsdI	Isd	Nutritional/Metabolic factor	Staphylococcus aureus subsp. aureus str. Newman	Staphylococcus	Staphylococcus aureus	isdI	VFC0272	VF0015	vfdb_staphylococcus_setA
VFG044443(gb|WP_001032773)	VFG044443	WP_001032773	(harA) haptoglobin-binding heme uptake protein HarA [Isd (VF0015) - Nutritional/Metabolic factor (VFC0272)] [Staphylococcus aureus subsp. aureus str. Newman]	(harA) haptoglobin-binding heme uptake protein HarA	Isd	Nutritional/Metabolic factor	Staphylococcus aureus subsp. aureus str. Newman	Staphylococcus	Staphylococcus aureus	harA	VFC0272	VF0015	vfdb_staphylococcus_setA
VFG049701(gb|WP_000655877)	VFG049701	WP_000655877	(esaE) type VII secretion system chaperone protein [Type VII secretion system (VF0403) - Effector delivery system (VFC0086)] [Staphylococcus aureus subsp. aureus MW2]	(esaE) type VII secretion system chaperone protein	Type VII secretion system	Effector delivery system	Staphylococcus aureus subsp. aureus MW2	Staphylococcus	Staphylococcus aureus	esaE	VFC0086	VF0403	vfdb_staphylococcus_setA
VFG049714(gb|WP_000175723)	VFG049714	WP_000175723	(esxD) type VII secretion system secreted protein EsxD [Type VII secretion system (VF0403) - Effector delivery system (VFC0086)] [Staphylococcus aureus subsp. aureus MW2]	(esxD) type VII secretion system secreted protein EsxD	Type VII secretion system	Effector delivery system	Staphylococcus aureus subsp. aureus MW2	Staphylococcus	Staphylococcus aureus	esxD	VFC0086	VF0403	vfdb_staphylococcus_setA
VFG049727(gb|WP_000159026)	VFG049727	WP_000159026	(esaD) type VII secretion system secreted protein, a nuclease toxin EsaD [Type VII secretion system (VF0403) - Effector delivery system (VFC0086)] [Staphylococcus aureus subsp. aureus MW2]	(esaD) type VII secretion system secreted protein, a nuclease toxin EsaD	Type VII secretion system	Effector delivery system	Staphylococcus aureus subsp. aureus MW2	Staphylococcus	Staphylococcus aureus	esaD	VFC0086	VF0403	vfdb_staphylococcus_setA
VFG049739(gb|WP_000142122)	VFG049739	WP_000142122	(esaG) TIGR01741 family protein [Type VII secretion system (VF0403) - Effector delivery system (VFC0086)] [Staphylococcus aureus subsp. aureus MW2]	(esaG) TIGR01741 family protein	Type VII secretion system	Effector delivery system	Staphylococcus aureus subsp. aureus MW2	Staphylococcus	Staphylococcus aureus	esaG	VFC0086	VF0403	vfdb_staphylococcus_setA
VFG049753(gb|WP_000141966)	VFG049753	WP_000141966	(esaG) TIGR01741 family protein [Type VII secretion system (VF0403) - Effector delivery system (VFC0086)] [Staphylococcus aureus subsp. aureus MW2]	(esaG) TIGR01741 family protein	Type VII secretion system	Effector delivery system	Staphylococcus aureus subsp. aureus MW2	Staphylococcus	Staphylococcus aureus	esaG	VFC0086	VF0403	vfdb_staphylococcus_setA
VFG049767(gb|WP_000141964)	VFG049767	WP_000141964	(esaG) TIGR01741 family protein [Type VII secretion system (VF0403) - Effector delivery system (VFC0086)] [Staphylococcus aureus subsp. aureus MW2]	(esaG) TIGR01741 family protein	Type VII secretion system	Effector delivery system	Staphylococcus aureus subsp. aureus MW2	Staphylococcus	Staphylococcus aureus	esaG	VFC0086	VF0403	vfdb_staphylococcus_setA
VFG049780(gb|WP_000142152)	VFG049780	WP_000142152	(esaG) TIGR01741 family protein [Type VII secretion system (VF0403) - Effector delivery system (VFC0086)] [Staphylococcus aureus subsp. aureus MW2]	(esaG) TIGR01741 family protein	Type VII secretion system	Effector delivery system	Staphylococcus aureus subsp. aureus MW2	Staphylococcus	Staphylococcus aureus	esaG	VFC0086	VF0403	vfdb_staphylococcus_setA
VFG049793(gb|WP_000863384)	VFG049793	WP_000863384	(esaG) TIGR01741 family protein [Type VII secretion system (VF0403) - Effector delivery system (VFC0086)] [Staphylococcus aureus subsp. aureus MW2]	(esaG) TIGR01741 family protein	Type VII secretion system	Effector delivery system	Staphylococcus aureus subsp. aureus MW2	Staphylococcus	Staphylococcus aureus	esaG	VFC0086	VF0403	vfdb_staphylococcus_setA
VFG049805(gb|WP_000142133)	VFG049805	WP_000142133	(esaG) TIGR01741 family protein [Type VII secretion system (VF0403) - Effector delivery system (VFC0086)] [Staphylococcus aureus subsp. aureus MW2]	(esaG) TIGR01741 family protein	Type VII secretion system	Effector delivery system	Staphylococcus aureus subsp. aureus MW2	Staphylococcus	Staphylococcus aureus	esaG	VFC0086	VF0403	vfdb_staphylococcus_setA
VFG049814(gb|WP_000142136)	VFG049814	WP_000142136	(esaG) TIGR01741 family protein [Type VII secretion system (VF0403) - Effector delivery system (VFC0086)] [Staphylococcus aureus subsp. aureus MW2]	(esaG) TIGR01741 family protein	Type VII secretion system	Effector delivery system	Staphylococcus aureus subsp. aureus MW2	Staphylococcus	Staphylococcus aureus	esaG	VFC0086	VF0403	vfdb_staphylococcus_setA
VFG049820(gb|WP_000142064)	VFG049820	WP_000142064	(esaG) TIGR01741 family protein [Type VII secretion system (VF0403) - Effector delivery system (VFC0086)] [Staphylococcus aureus subsp. aureus MW2]	(esaG) TIGR01741 family protein	Type VII secretion system	Effector delivery system	Staphylococcus aureus subsp. aureus MW2	Staphylococcus	Staphylococcus aureus	esaG	VFC0086	VF0403	vfdb_staphylococcus_setA
VFG049826(gb|WP_000142058)	VFG049826	WP_000142058	(esaG) TIGR01741 family protein [Type VII secretion system (VF0403) - Effector delivery system (VFC0086)] [Staphylococcus aureus subsp. aureus MW2]	(esaG) TIGR01741 family protein	Type VII secretion system	Effector delivery system	Staphylococcus aureus subsp. aureus MW2	Staphylococcus	Staphylococcus aureus	esaG	VFC0086	VF0403	vfdb_staphylococcus_setA
VFG049876(gb|WP_000702263)	VFG049876	WP_000702263	(scn) complement inhibitor SCIN [SCIN (VF0425) - Immune modulation (VFC0258)] [Staphylococcus aureus subsp. aureus MW2]	(scn) complement inhibitor SCIN	SCIN	Immune modulation	Staphylococcus aureus subsp. aureus MW2	Staphylococcus	Staphylococcus aureus	scn	VFC0258	VF0425	vfdb_staphylococcus_setA
